[Module]
VortexTrackerII=1
Version=3.6
Title="Crossroads PSG3"
Author=SGPSGConverter
NoteTable=2
ChipFreq=1520640
Speed=3
PlayOrder=L0,1,2,3,4,5,6,7,8,9,10,11

[Ornament1]
L0

[Ornament2]
L0

[Ornament3]
L0

[Ornament4]
L0

[Ornament5]
L0

[Ornament6]
L0

[Ornament7]
L0

[Ornament8]
L0

[Ornament9]
L0

[Ornament10]
L0

[Ornament11]
L0

[Ornament12]
L0

[Ornament13]
L0

[Ornament14]
L0

[Ornament15]
L0

[Sample1]
Tne +000_ +00_ F_ L

[Sample2]
Tne +000_ +00_ F_ L

[Sample3]
Tne +000_ +00_ F_ L

[Sample4]
Tne +000_ +00_ F_ L

[Sample5]
Tne +000_ +00_ F_ L

[Sample6]
Tne +000_ +00_ F_ L

[Sample7]
Tne +000_ +00_ F_ L

[Sample8]
Tne +000_ +00_ F_ L

[Sample9]
tne +000_ +00_ 0_ L

[Sample10]
tne +000_ +00_ 0_ L

[Sample11]
tne +000_ +00_ 0_ L

[Sample12]
tne +000_ +00_ 0_ L

[Sample13]
tne +000_ +00_ 0_ L

[Sample14]
tne +000_ +00_ 0_ L

[Sample15]
tne +000_ +00_ 0_ L

[Sample16]
tne +000_ +00_ 0_ L

[Sample17]
tne +000_ +00_ 0_ L

[Sample18]
tne +000_ +00_ 0_ L

[Sample19]
tne +000_ +00_ 0_ L

[Sample20]
tne +000_ +00_ 0_ L

[Sample21]
tne +000_ +00_ 0_ L

[Sample22]
tne +000_ +00_ 0_ L

[Sample23]
tne +000_ +00_ 0_ L

[Sample24]
tne +000_ +00_ 0_ L

[Sample25]
tne +000_ +00_ 0_ L

[Sample26]
tne +000_ +00_ 0_ L

[Sample27]
tne +000_ +00_ 0_ L

[Sample28]
tne +000_ +00_ 0_ L

[Sample29]
tne +000_ +00_ 0_ L

[Sample30]
tne +000_ +00_ 0_ L

[Sample31]
tne +000_ +00_ 0_ L

[Pattern0]
....|..|D-3 ...F ....|G#4 ...E ....|C-4 ...C ....
....|..|--- .... ....|--- .... ....|--- ...9 ....
....|..|--- .... ....|--- .... ....|C-4 .... ....
....|..|--- .... ....|--- .... ....|--- .... ....
....|..|D-2 .... ....|A#3 .... ....|C-4 .... ....
....|..|--- .... ....|--- .... ....|--- .... ....
....|..|R-- .... ....|--- .... ....|C-4 .... ....
....|..|--- .... ....|--- .... ....|--- ...F ....
....|..|D-3 .... ....|D-4 .... ....|C-4 .... ....
....|..|--- .... ....|--- .... ....|--- ...9 ....
....|..|--- .... ....|--- .... ....|C-4 .... ....
....|..|--- .... ....|--- .... ....|--- .... ....
....|..|D-2 .... ....|G#4 .... ....|C-4 .... ....
....|..|--- .... ....|--- .... ....|--- .... ....
....|..|R-- .... ....|--- .... ....|C-4 .... ....
....|..|--- .... ....|--- .... ....|--- ...C ....
....|..|D-3 .... ....|A#3 .... ....|C-4 .... ....
....|..|--- .... ....|--- .... ....|--- ...9 ....
....|..|--- .... ....|--- .... ....|C-4 .... ....
....|..|--- .... ....|--- .... ....|--- .... ....
....|..|D-2 .... ....|D-4 .... ....|C-4 .... ....
....|..|--- .... ....|--- .... ....|--- .... ....
....|..|R-- .... ....|--- .... ....|C-4 .... ....
....|..|--- .... ....|--- .... ....|--- ...F ....
....|..|D-3 .... ....|G#4 .... ....|C-4 .... ....
....|..|--- .... ....|--- .... ....|--- ...9 ....
....|..|--- .... ....|--- .... ....|C-4 .... ....
....|..|--- .... ....|--- .... ....|--- .... ....
....|..|D-2 .... ....|A#3 .... ....|C-4 .... ....
....|..|--- .... ....|--- .... ....|--- .... ....
....|..|R-- .... ....|--- .... ....|C-4 .... ....
....|..|--- .... ....|--- .... ....|--- ...C ....
....|..|D-3 .... ....|D-4 .... ....|C-4 .... ....
....|..|--- .... ....|--- .... ....|--- ...9 ....
....|..|--- .... ....|--- .... ....|C-4 .... ....
....|..|--- .... ....|--- .... ....|--- .... ....
....|..|D-2 .... ....|G#4 .... ....|C-4 .... ....
....|..|--- .... ....|--- .... ....|--- .... ....
....|..|R-- .... ....|--- .... ....|C-4 .... ....
....|..|--- .... ....|--- .... ....|--- ...F ....
....|..|D-3 .... ....|A#3 .... ....|C-4 .... ....
....|..|--- .... ....|--- .... ....|--- ...9 ....
....|..|--- .... ....|--- .... ....|C-4 .... ....
....|..|--- .... ....|--- .... ....|--- .... ....
....|..|D-2 .... ....|D-4 .... ....|C-4 .... ....
....|..|--- .... ....|--- .... ....|--- .... ....
....|..|R-- .... ....|--- .... ....|C-4 .... ....
....|..|--- .... ....|--- .... ....|--- ...C ....
....|..|D-3 .... ....|G#4 .... ....|C-4 .... ....
....|..|--- .... ....|--- .... ....|--- ...9 ....
....|..|--- .... ....|--- .... ....|C-4 .... ....
....|..|--- .... ....|--- .... ....|--- .... ....
....|..|D-2 .... ....|A#3 .... ....|C-4 .... ....
....|..|--- .... ....|--- .... ....|--- .... ....
....|..|R-- .... ....|--- .... ....|C-4 .... ....
....|..|--- .... ....|--- .... ....|--- ...F ....
....|..|D-3 .... ....|G#4 .... ....|C-4 .... ....
....|..|--- .... ....|--- .... ....|--- ...9 ....
....|..|--- .... ....|--- .... ....|C-4 .... ....
....|..|--- .... ....|--- .... ....|--- .... ....
....|..|D-2 .... ....|A#3 .... ....|C-4 .... ....
....|..|--- .... ....|--- .... ....|--- .... ....
....|..|R-- .... ....|--- .... ....|C-4 .... ....
....|..|--- .... ....|--- .... ....|--- ...C ....
....|..|D-3 .... ....|G#4 .... ....|C-4 .... ....
....|..|--- .... ....|--- .... ....|--- ...9 ....
....|..|--- .... ....|--- .... ....|C-4 .... ....
....|..|--- .... ....|--- .... ....|--- .... ....
....|..|D-2 .... ....|A#3 .... ....|C-4 .... ....
....|..|--- .... ....|--- .... ....|--- .... ....
....|..|R-- .... ....|--- .... ....|C-4 .... ....
....|..|--- .... ....|--- .... ....|--- ...F ....
....|..|D-3 .... ....|D-4 .... ....|C-4 .... ....
....|..|--- .... ....|--- .... ....|--- ...9 ....
....|..|--- .... ....|--- .... ....|C-4 .... ....
....|..|--- .... ....|--- .... ....|--- .... ....
....|..|D-2 .... ....|G#4 .... ....|C-4 .... ....
....|..|--- .... ....|--- .... ....|--- .... ....
....|..|R-- .... ....|--- .... ....|C-4 .... ....
....|..|--- .... ....|--- .... ....|--- ...C ....
....|..|D-3 .... ....|A#3 .... ....|C-4 .... ....
....|..|--- .... ....|--- .... ....|--- ...9 ....
....|..|--- .... ....|--- .... ....|C-4 .... ....
....|..|--- .... ....|--- .... ....|--- .... ....
....|..|D-2 .... ....|D-4 .... ....|C-4 .... ....
....|..|--- .... ....|--- .... ....|--- .... ....
....|..|R-- .... ....|--- .... ....|C-4 .... ....
....|..|--- .... ....|--- .... ....|--- ...F ....
....|..|D-3 .... ....|G#4 .... ....|C-4 .... ....
....|..|--- .... ....|--- .... ....|--- ...9 ....
....|..|--- .... ....|--- .... ....|C-4 .... ....
....|..|--- .... ....|--- .... ....|--- .... ....
....|..|D-2 .... ....|A#3 .... ....|C-4 .... ....
....|..|--- .... ....|--- .... ....|--- .... ....
....|..|R-- .... ....|--- .... ....|C-4 .... ....
....|..|--- .... ....|--- .... ....|--- ...C ....
....|..|D-3 .... ....|D-4 .... ....|C-4 .... ....
....|..|--- .... ....|--- .... ....|--- ...9 ....
....|..|--- .... ....|--- .... ....|C-4 .... ....
....|..|--- .... ....|--- .... ....|--- .... ....
....|..|D-2 .... ....|G#4 .... ....|C-4 .... ....
....|..|--- .... ....|--- .... ....|--- .... ....
....|..|R-- .... ....|--- .... ....|C-4 .... ....
....|..|--- .... ....|--- .... ....|--- ...F ....
....|..|D-3 .... ....|A#3 .... ....|C-4 .... ....
....|..|--- .... ....|--- .... ....|--- ...9 ....
....|..|--- .... ....|--- .... ....|C-4 .... ....
....|..|--- .... ....|--- .... ....|--- .... ....
....|..|D-2 .... ....|D-4 .... ....|C-4 .... ....
....|..|--- .... ....|--- .... ....|--- .... ....
....|..|R-- .... ....|--- .... ....|C-4 .... ....
....|..|--- .... ....|--- .... ....|--- ...C ....
....|..|D-3 .... ....|G#4 .... ....|C-4 .... ....
....|..|--- .... ....|--- .... ....|--- ...9 ....
....|..|--- .... ....|--- .... ....|C-4 .... ....
....|..|--- .... ....|--- .... ....|--- .... ....
....|..|D-2 .... ....|A#3 .... ....|C-4 .... ....
....|..|--- .... ....|--- .... ....|--- .... ....
....|..|R-- .... ....|--- .... ....|C-4 .... ....
....|..|--- .... ....|--- .... ....|--- ...F ....
....|..|D-3 .... ....|G#4 .... ....|C-4 .... ....
....|..|--- .... ....|--- .... ....|--- ...9 ....
....|..|--- .... ....|--- .... ....|C-4 .... ....
....|..|--- .... ....|--- .... ....|--- .... ....
....|..|D-2 .... ....|A#3 .... ....|C-4 .... ....
....|..|--- .... ....|--- .... ....|--- .... ....
....|..|R-- .... ....|--- .... ....|C-4 .... ....
....|..|--- .... ....|--- .... ....|--- ...C ....

[Pattern1]
....|..|D-3 .... ....|D-5 .... ....|C-4 .... ....
....|..|--- .... ....|--- .... ....|--- ...9 ....
....|..|--- .... ....|--- .... ....|C-4 .... ....
....|..|--- .... ....|--- .... ....|--- .... ....
....|..|D-2 .... ....|A#3 .... ....|C-4 .... ....
....|..|--- .... ....|--- .... ....|--- .... ....
....|..|R-- .... ....|--- .... ....|C-4 .... ....
....|..|--- .... ....|--- .... ....|--- ...F ....
....|..|D-3 .... ....|D-4 .... ....|C-4 .... ....
....|..|--- .... ....|--- .... ....|--- ...9 ....
....|..|--- .... ....|--- .... ....|C-4 .... ....
....|..|--- .... ....|--- .... ....|--- .... ....
....|..|D-2 .... ....|D-5 .... ....|C-4 .... ....
....|..|--- .... ....|--- .... ....|--- .... ....
....|..|R-- .... ....|--- .... ....|C-4 .... ....
....|..|--- .... ....|--- .... ....|--- ...C ....
....|..|D-3 .... ....|A#3 .... ....|C-4 .... ....
....|..|--- .... ....|--- .... ....|--- ...9 ....
....|..|--- .... ....|--- .... ....|C-4 .... ....
....|..|--- .... ....|--- .... ....|--- .... ....
....|..|D-2 .... ....|D-4 .... ....|C-4 .... ....
....|..|--- .... ....|--- .... ....|--- .... ....
....|..|R-- .... ....|--- .... ....|C-4 .... ....
....|..|--- .... ....|--- .... ....|--- ...F ....
....|..|D-3 .... ....|D-5 .... ....|C-4 .... ....
....|..|--- .... ....|--- .... ....|--- ...9 ....
....|..|--- .... ....|--- .... ....|C-4 .... ....
....|..|--- .... ....|--- .... ....|--- .... ....
....|..|D-2 .... ....|A#3 .... ....|C-4 .... ....
....|..|--- .... ....|--- .... ....|--- .... ....
....|..|R-- .... ....|--- .... ....|C-4 .... ....
....|..|--- .... ....|--- .... ....|--- ...C ....
....|..|D-3 .... ....|D-4 .... ....|C-4 .... ....
....|..|--- .... ....|--- .... ....|--- ...9 ....
....|..|--- .... ....|--- .... ....|C-4 .... ....
....|..|--- .... ....|--- .... ....|--- .... ....
....|..|D-2 .... ....|D-5 .... ....|C-4 .... ....
....|..|--- .... ....|--- .... ....|--- .... ....
....|..|R-- .... ....|--- .... ....|C-4 .... ....
....|..|--- .... ....|--- .... ....|--- ...F ....
....|..|D-3 .... ....|A#3 .... ....|C-4 .... ....
....|..|--- .... ....|--- .... ....|--- ...9 ....
....|..|--- .... ....|--- .... ....|C-4 .... ....
....|..|--- .... ....|--- .... ....|--- .... ....
....|..|D-2 .... ....|D-4 .... ....|C-4 .... ....
....|..|--- .... ....|--- .... ....|--- .... ....
....|..|R-- .... ....|--- .... ....|C-4 .... ....
....|..|--- .... ....|--- .... ....|--- ...C ....
....|..|D-3 .... ....|D-5 .... ....|C-4 .... ....
....|..|--- .... ....|--- .... ....|--- ...9 ....
....|..|--- .... ....|--- .... ....|C-4 .... ....
....|..|--- .... ....|--- .... ....|--- .... ....
....|..|D-2 .... ....|A#3 .... ....|C-4 .... ....
....|..|--- .... ....|--- .... ....|--- .... ....
....|..|R-- .... ....|--- .... ....|C-4 .... ....
....|..|--- .... ....|--- .... ....|--- ...F ....
....|..|D-3 .... ....|D-5 .... ....|C-4 .... ....
....|..|--- .... ....|--- .... ....|--- ...9 ....
....|..|--- .... ....|--- .... ....|C-4 .... ....
....|..|--- .... ....|--- .... ....|--- .... ....
....|..|D-2 .... ....|A#3 .... ....|C-4 .... ....
....|..|--- .... ....|--- .... ....|--- .... ....
....|..|R-- .... ....|--- .... ....|C-4 .... ....
....|..|--- .... ....|--- .... ....|--- ...C ....
....|..|D-3 .... ....|D-5 .... ....|C-4 .... ....
....|..|--- .... ....|--- .... ....|--- ...9 ....
....|..|--- .... ....|--- .... ....|C-4 .... ....
....|..|--- .... ....|--- .... ....|--- .... ....
....|..|D-2 .... ....|A#3 .... ....|C-4 .... ....
....|..|--- .... ....|--- .... ....|--- .... ....
....|..|R-- .... ....|--- .... ....|C-4 .... ....
....|..|--- .... ....|--- .... ....|--- ...F ....
....|..|D-3 .... ....|D-4 .... ....|C-4 .... ....
....|..|--- .... ....|--- .... ....|--- ...9 ....
....|..|--- .... ....|--- .... ....|C-4 .... ....
....|..|--- .... ....|--- .... ....|--- .... ....
....|..|D-2 .... ....|D-5 .... ....|C-4 .... ....
....|..|--- .... ....|--- .... ....|--- .... ....
....|..|R-- .... ....|--- .... ....|C-4 .... ....
....|..|--- .... ....|--- .... ....|--- ...C ....
....|..|D-3 .... ....|A#3 .... ....|C-4 .... ....
....|..|--- .... ....|--- .... ....|--- ...9 ....
....|..|--- .... ....|--- .... ....|C-4 .... ....
....|..|--- .... ....|--- .... ....|--- .... ....
....|..|D-2 .... ....|D-4 .... ....|C-4 .... ....
....|..|--- .... ....|--- .... ....|--- .... ....
....|..|R-- .... ....|--- .... ....|C-4 .... ....
....|..|--- .... ....|--- .... ....|--- ...F ....
....|..|D-3 .... ....|D-5 .... ....|C-4 .... ....
....|..|--- .... ....|--- .... ....|--- ...9 ....
....|..|--- .... ....|--- .... ....|C-4 .... ....
....|..|--- .... ....|--- .... ....|--- .... ....
....|..|D-2 .... ....|A#3 .... ....|C-4 .... ....
....|..|--- .... ....|--- .... ....|--- .... ....
....|..|R-- .... ....|--- .... ....|C-4 .... ....
....|..|--- .... ....|--- .... ....|--- ...C ....
....|..|D-3 .... ....|D-4 .... ....|C-4 .... ....
....|..|--- .... ....|--- .... ....|--- ...9 ....
....|..|--- .... ....|--- .... ....|C-4 .... ....
....|..|--- .... ....|--- .... ....|--- .... ....
....|..|D-2 .... ....|D-5 .... ....|C-4 .... ....
....|..|--- .... ....|--- .... ....|--- .... ....
....|..|R-- .... ....|--- .... ....|C-4 .... ....
....|..|--- .... ....|--- .... ....|--- ...F ....
....|..|D-3 .... ....|A#3 .... ....|C-4 .... ....
....|..|--- .... ....|--- .... ....|--- ...9 ....
....|..|--- .... ....|--- .... ....|C-4 .... ....
....|..|--- .... ....|--- .... ....|--- .... ....
....|..|D-2 .... ....|D-4 .... ....|C-4 .... ....
....|..|--- .... ....|--- .... ....|--- .... ....
....|..|R-- .... ....|--- .... ....|C-4 .... ....
....|..|--- .... ....|--- .... ....|--- ...C ....
....|..|D-3 .... ....|D-5 .... ....|C-4 .... ....
....|..|--- .... ....|--- .... ....|--- ...9 ....
....|..|--- .... ....|G#3 .... ....|C-4 .... ....
....|..|--- .... ....|--- .... ....|--- .... ....
....|..|D-2 .... ....|A#3 .... ....|C-4 .... ....
....|..|--- .... ....|--- .... ....|--- .... ....
....|..|R-- .... ....|D-4 .... ....|C-4 .... ....
....|..|--- .... ....|--- .... ....|--- ...F ....
....|..|D-3 .... ....|E-4 .... ....|C-4 .... ....
....|..|--- .... ....|--- .... ....|--- ...9 ....
....|..|--- .... ....|G#4 .... ....|C-4 .... ....
....|..|--- .... ....|--- .... ....|--- .... ....
....|..|D-2 .... ....|A#4 .... ....|C-4 .... ....
....|..|--- .... ....|--- .... ....|--- .... ....
....|..|R-- .... ....|E-5 .... ....|C-4 .... ....
....|..|--- .... ....|--- .... ....|--- ...C ....

[Pattern2]
....|..|D-3 .... ....|G#4 .... ....|C-4 .... ....
....|..|--- .... ....|--- .... ....|--- ...9 ....
....|..|--- .... ....|A#3 .... ....|C-4 .... ....
....|..|--- .... ....|--- .... ....|--- .... ....
....|..|D-2 .... ....|D-4 .... ....|C-4 .... ....
....|..|--- .... ....|--- .... ....|--- .... ....
....|..|R-- .... ....|G#4 .... ....|C-4 .... ....
....|..|--- .... ....|--- .... ....|--- ...F ....
....|..|D-3 .... ....|A#3 .... ....|C-4 .... ....
....|..|--- .... ....|--- .... ....|--- ...9 ....
....|..|--- .... ....|D-4 .... ....|C-4 .... ....
....|..|--- .... ....|--- .... ....|--- .... ....
....|..|D-2 .... ....|G#4 .... ....|C-4 .... ....
....|..|--- .... ....|--- .... ....|--- .... ....
....|..|R-- .... ....|A#3 .... ....|C-4 .... ....
....|..|--- .... ....|--- .... ....|--- ...C ....
....|..|D-3 .... ....|D-4 .... ....|C-4 .... ....
....|..|--- .... ....|--- .... ....|--- ...9 ....
....|..|--- .... ....|G#4 .... ....|C-4 .... ....
....|..|--- .... ....|--- .... ....|--- .... ....
....|..|D-2 .... ....|A#3 .... ....|C-4 .... ....
....|..|--- .... ....|--- .... ....|--- .... ....
....|..|R-- .... ....|D-4 .... ....|C-4 .... ....
....|..|--- .... ....|--- .... ....|--- ...F ....
....|..|D-3 .... ....|G#4 .... ....|C-4 .... ....
....|..|--- .... ....|--- .... ....|--- ...9 ....
....|..|--- .... ....|A#3 .... ....|C-4 .... ....
....|..|--- .... ....|--- .... ....|--- .... ....
....|..|D-2 .... ....|G#4 .... ....|C-4 .... ....
....|..|--- .... ....|--- .... ....|--- .... ....
....|..|R-- .... ....|A#3 .... ....|C-4 .... ....
....|..|--- .... ....|--- .... ....|--- ...C ....
....|..|D-3 .... ....|G#4 .... ....|C-4 .... ....
....|..|--- .... ....|--- .... ....|--- ...9 ....
....|..|--- .... ....|A#3 .... ....|C-4 .... ....
....|..|--- .... ....|--- .... ....|--- .... ....
....|..|D-2 .... ....|D-4 .... ....|C-4 .... ....
....|..|--- .... ....|--- .... ....|--- .... ....
....|..|R-- .... ....|G#4 .... ....|C-4 .... ....
....|..|--- .... ....|--- .... ....|--- ...F ....
....|..|D-3 .... ....|A#3 .... ....|C-4 .... ....
....|..|--- .... ....|--- .... ....|--- ...9 ....
....|..|--- .... ....|D-4 .... ....|C-4 .... ....
....|..|--- .... ....|--- .... ....|--- .... ....
....|..|D-2 .... ....|G#4 .... ....|C-4 .... ....
....|..|--- .... ....|--- .... ....|--- .... ....
....|..|R-- .... ....|A#3 .... ....|C-4 .... ....
....|..|--- .... ....|--- .... ....|--- ...C ....
....|..|D-3 .... ....|D-4 .... ....|C-4 .... ....
....|..|--- .... ....|--- .... ....|--- ...9 ....
....|..|--- .... ....|G#4 .... ....|C-4 .... ....
....|..|--- .... ....|--- .... ....|--- .... ....
....|..|D-2 .... ....|A#3 .... ....|C-4 .... ....
....|..|--- .... ....|--- .... ....|--- .... ....
....|..|R-- .... ....|D-4 .... ....|C-4 .... ....
....|..|--- .... ....|--- .... ....|--- ...F ....
....|..|D-3 .... ....|G#4 .... ....|C-4 .... ....
....|..|--- .... ....|--- .... ....|--- ...9 ....
....|..|--- .... ....|A#3 .... ....|C-4 .... ....
....|..|--- .... ....|--- .... ....|--- .... ....
....|..|D-2 .... ....|G#4 .... ....|C-4 .... ....
....|..|--- .... ....|--- .... ....|--- .... ....
....|..|R-- .... ....|A#3 .... ....|C-4 .... ....
....|..|--- .... ....|--- .... ....|--- ...C ....
....|..|D-3 .... ....|D-5 .... ....|C-4 .... ....
....|..|--- .... ....|--- .... ....|--- ...9 ....
....|..|--- .... ....|A#3 .... ....|C-4 .... ....
....|..|--- .... ....|--- .... ....|--- .... ....
....|..|D-2 .... ....|D-4 .... ....|C-4 .... ....
....|..|--- .... ....|--- .... ....|--- .... ....
....|..|R-- .... ....|D-5 .... ....|C-4 .... ....
....|..|--- .... ....|--- .... ....|--- ...F ....
....|..|D-3 .... ....|A#3 .... ....|C-4 .... ....
....|..|--- .... ....|--- .... ....|--- ...9 ....
....|..|--- .... ....|D-4 .... ....|C-4 .... ....
....|..|--- .... ....|--- .... ....|--- .... ....
....|..|D-2 .... ....|D-5 .... ....|C-4 .... ....
....|..|--- .... ....|--- .... ....|--- .... ....
....|..|R-- .... ....|A#3 .... ....|C-4 .... ....
....|..|--- .... ....|--- .... ....|--- ...C ....
....|..|D-3 .... ....|D-4 .... ....|C-4 .... ....
....|..|--- .... ....|--- .... ....|--- ...9 ....
....|..|--- .... ....|D-5 .... ....|C-4 .... ....
....|..|--- .... ....|--- .... ....|--- .... ....
....|..|D-2 .... ....|A#3 .... ....|C-4 .... ....
....|..|--- .... ....|--- .... ....|--- .... ....
....|..|R-- .... ....|D-4 .... ....|C-4 .... ....
....|..|--- .... ....|--- .... ....|--- ...F ....
....|..|D-3 .... ....|D-5 .... ....|C-4 .... ....
....|..|--- .... ....|--- .... ....|--- ...9 ....
....|..|--- .... ....|A#3 .... ....|C-4 .... ....
....|..|--- .... ....|--- .... ....|--- .... ....
....|..|D-2 .... ....|D-5 .... ....|C-4 .... ....
....|..|--- .... ....|--- .... ....|--- .... ....
....|..|R-- .... ....|A#3 .... ....|C-4 .... ....
....|..|--- .... ....|--- .... ....|--- ...C ....
....|..|D-3 .... ....|D-5 .... ....|C-4 .... ....
....|..|--- .... ....|--- .... ....|--- ...9 ....
....|..|--- .... ....|A#3 .... ....|C-4 .... ....
....|..|--- .... ....|--- .... ....|--- .... ....
....|..|D-2 .... ....|D-4 .... ....|C-4 .... ....
....|..|--- .... ....|--- .... ....|--- .... ....
....|..|R-- .... ....|D-5 .... ....|C-4 .... ....
....|..|--- .... ....|--- .... ....|--- ...F ....
....|..|D-3 .... ....|A#3 .... ....|C-4 .... ....
....|..|--- .... ....|--- .... ....|--- ...9 ....
....|..|--- .... ....|D-4 .... ....|C-4 .... ....
....|..|--- .... ....|--- .... ....|--- .... ....
....|..|D-2 .... ....|D-5 .... ....|C-4 .... ....
....|..|--- .... ....|--- .... ....|--- .... ....
....|..|R-- .... ....|A#3 .... ....|C-4 .... ....
....|..|--- .... ....|--- .... ....|--- ...C ....
....|..|D-3 .... ....|D-4 .... ....|C-4 .... ....
....|..|--- .... ....|--- .... ....|--- ...9 ....
....|..|--- .... ....|D-5 .... ....|C-4 .... ....
....|..|--- .... ....|--- .... ....|--- .... ....
....|..|D-2 .... ....|A#3 .... ....|C-4 .... ....
....|..|--- .... ....|--- .... ....|--- .... ....
....|..|R-- .... ....|D-4 .... ....|C-4 .... ....
....|..|--- .... ....|--- .... ....|--- ...F ....
....|..|D-3 .... ....|D-5 .... ....|C-4 .... ....
....|..|--- .... ....|--- .... ....|--- ...9 ....
....|..|--- .... ....|G#3 .... ....|C-4 .... ....
....|..|--- .... ....|--- .... ....|--- .... ....
....|..|D-2 .... ....|A#3 .... ....|C-4 .... ....
....|..|--- .... ....|--- .... ....|--- .... ....
....|..|R-- .... ....|D-4 .... ....|C-4 .... ....
....|..|--- .... ....|--- .... ....|--- ...C ....

[Pattern3]
....|..|D-3 .... ....|E-4 .... ....|C-4 .... ....
....|..|--- .... ....|--- .... ....|--- ...9 ....
....|..|--- .... ....|G#4 .... ....|C-4 .... ....
....|..|--- .... ....|--- .... ....|--- .... ....
....|..|D-2 .... ....|A#4 .... ....|C-4 .... ....
....|..|--- .... ....|--- .... ....|--- .... ....
....|..|R-- .... ....|E-5 .... ....|C-4 .... ....
....|..|--- .... ....|--- ...D ....|--- ...F ....
....|..|D-3 .... ....|D-4 .... ....|C-4 .... ....
....|..|--- .... ....|--- .... ....|--- ...9 ....
....|..|--- .... ....|--- .... ....|C-4 .... ....
....|..|--- .... ....|--- .... ....|--- .... ....
....|..|D-2 .... ....|D-5 .... ....|C-4 .... ....
....|..|--- .... ....|--- .... ....|--- .... ....
....|..|R-- .... ....|R-- .... ....|C-4 .... ....
....|..|--- .... ....|--- .... ....|--- ...C ....
....|..|D-3 .... ....|G#4 .... ....|C-4 .... ....
....|..|--- .... ....|--- .... ....|--- ...9 ....
....|..|--- .... ....|--- .... ....|C-4 .... ....
....|..|--- .... ....|--- .... ....|--- .... ....
....|..|D-2 .... ....|G#5 .... ....|C-4 .... ....
....|..|--- .... ....|--- .... ....|--- .... ....
....|..|R-- .... ....|R-- .... ....|C-4 .... ....
....|..|--- .... ....|--- .... ....|--- ...F ....
....|..|D-3 .... ....|E-4 .... ....|C-4 .... ....
....|..|--- .... ....|--- .... ....|--- ...9 ....
....|..|--- .... ....|--- .... ....|C-4 .... ....
....|..|--- .... ....|--- .... ....|--- .... ....
....|..|D-2 .... ....|E-5 .... ....|C-4 .... ....
....|..|--- .... ....|--- .... ....|--- .... ....
....|..|R-- .... ....|R-- .... ....|C-4 .... ....
....|..|--- .... ....|--- .... ....|--- ...C ....
....|..|D-3 .... ....|A#4 .... ....|C-4 .... ....
....|..|--- .... ....|--- .... ....|--- ...9 ....
....|..|--- .... ....|--- .... ....|C-4 .... ....
....|..|--- .... ....|--- .... ....|--- .... ....
....|..|D-2 .... ....|A#5 .... ....|C-4 .... ....
....|..|--- .... ....|--- .... ....|--- .... ....
....|..|R-- .... ....|R-- .... ....|C-4 .... ....
....|..|--- .... ....|--- .... ....|--- ...F ....
....|..|D-3 .... ....|D-4 .... ....|C-4 .... ....
....|..|--- .... ....|--- .... ....|--- ...9 ....
....|..|--- .... ....|--- .... ....|C-4 .... ....
....|..|--- .... ....|--- .... ....|--- .... ....
....|..|D-2 .... ....|D-5 .... ....|C-4 .... ....
....|..|--- .... ....|--- .... ....|--- .... ....
....|..|R-- .... ....|R-- .... ....|C-4 .... ....
....|..|--- .... ....|--- .... ....|--- ...C ....
....|..|D-3 .... ....|G#4 .... ....|C-4 .... ....
....|..|--- .... ....|--- .... ....|--- ...9 ....
....|..|--- .... ....|--- .... ....|C-4 .... ....
....|..|--- .... ....|--- .... ....|--- .... ....
....|..|D-2 .... ....|G#5 .... ....|C-4 .... ....
....|..|--- .... ....|--- .... ....|--- .... ....
....|..|R-- .... ....|R-- .... ....|C-4 .... ....
....|..|--- .... ....|--- .... ....|--- ...F ....
....|..|D-3 .... ....|E-4 .... ....|C-4 .... ....
....|..|--- .... ....|--- .... ....|--- ...9 ....
....|..|--- .... ....|--- .... ....|C-4 .... ....
....|..|--- .... ....|--- .... ....|--- .... ....
....|..|D-2 .... ....|E-5 .... ....|C-4 .... ....
....|..|--- .... ....|--- .... ....|--- .... ....
....|..|R-- .... ....|R-- .... ....|C-4 .... ....
....|..|--- .... ....|--- .... ....|--- ...C ....
....|..|D-3 .... ....|D-4 .... ....|C-4 .... ....
....|..|--- .... ....|--- .... ....|--- ...9 ....
....|..|--- .... ....|--- .... ....|C-4 .... ....
....|..|--- .... ....|--- .... ....|--- .... ....
....|..|D-2 .... ....|D-5 .... ....|C-4 .... ....
....|..|--- .... ....|--- .... ....|--- .... ....
....|..|R-- .... ....|R-- .... ....|C-4 .... ....
....|..|--- .... ....|--- .... ....|--- ...F ....
....|..|D-3 .... ....|D-3 .... ....|C-4 .... ....
....|..|--- .... ....|--- .... ....|--- ...9 ....
....|..|--- .... ....|--- .... ....|C-4 .... ....
....|..|--- .... ....|--- .... ....|--- .... ....
....|..|D-2 .... ....|D-4 .... ....|C-4 .... ....
....|..|--- .... ....|--- .... ....|--- .... ....
....|..|R-- .... ....|R-- .... ....|C-4 .... ....
....|..|--- .... ....|--- .... ....|--- ...C ....
....|..|D-3 .... ....|G#3 .... ....|C-4 .... ....
....|..|--- .... ....|--- .... ....|--- ...9 ....
....|..|--- .... ....|--- .... ....|C-4 .... ....
....|..|--- .... ....|--- .... ....|--- .... ....
....|..|D-2 .... ....|G#4 .... ....|C-4 .... ....
....|..|--- .... ....|--- .... ....|--- .... ....
....|..|R-- .... ....|R-- .... ....|C-4 .... ....
....|..|--- .... ....|--- .... ....|--- ...F ....
....|..|D-3 .... ....|E-3 .... ....|C-4 .... ....
....|..|--- .... ....|--- .... ....|--- ...9 ....
....|..|--- .... ....|--- .... ....|C-4 .... ....
....|..|--- .... ....|--- .... ....|--- .... ....
....|..|D-2 .... ....|E-4 .... ....|C-4 .... ....
....|..|--- .... ....|--- .... ....|--- .... ....
....|..|R-- .... ....|R-- .... ....|C-4 .... ....
....|..|--- .... ....|--- .... ....|--- ...C ....
....|..|D-3 .... ....|A#3 .... ....|C-4 .... ....
....|..|--- .... ....|--- .... ....|--- ...9 ....
....|..|--- .... ....|--- .... ....|C-4 .... ....
....|..|--- .... ....|--- .... ....|--- .... ....
....|..|D-2 .... ....|A#4 .... ....|C-4 .... ....
....|..|--- .... ....|--- .... ....|--- .... ....
....|..|R-- .... ....|R-- .... ....|C-4 .... ....
....|..|--- .... ....|--- .... ....|--- ...F ....
....|..|D-3 .... ....|D-3 .... ....|C-4 .... ....
....|..|--- .... ....|--- .... ....|--- ...9 ....
....|..|--- .... ....|--- .... ....|C-4 .... ....
....|..|--- .... ....|--- .... ....|--- .... ....
....|..|D-2 .... ....|D-4 .... ....|C-4 .... ....
....|..|--- .... ....|--- .... ....|--- .... ....
....|..|R-- .... ....|R-- .... ....|C-4 .... ....
....|..|--- .... ....|--- .... ....|--- ...C ....
....|..|G#3 .... ....|G#3 .... ....|C-4 .... ....
....|..|--- .... ....|--- .... ....|--- ...9 ....
....|..|G#2 .... ....|--- .... ....|C-4 .... ....
....|..|--- .... ....|--- .... ....|--- .... ....
....|..|A#2 .... ....|G#4 .... ....|C-4 .... ....
....|..|--- .... ....|--- .... ....|--- .... ....
....|..|D-3 .... ....|R-- .... ....|C-4 .... ....
....|..|--- .... ....|--- .... ....|--- ...F ....
....|..|E-3 .... ....|E-3 .... ....|C-4 .... ....
....|..|--- .... ....|--- .... ....|--- ...9 ....
....|..|G#3 .... ....|--- .... ....|C-4 .... ....
....|..|--- .... ....|--- .... ....|--- .... ....
....|..|A#3 .... ....|E-4 .... ....|C-4 .... ....
....|..|--- .... ....|--- .... ....|--- .... ....
....|..|E-4 .... ....|R-- .... ....|C-4 .... ....
....|..|--- .... ....|--- .... ....|--- ...C ....

[Pattern4]
....|..|D-3 .... ....|D-3 .... ....|C-4 .... ....
....|..|--- .... ....|--- .... ....|--- ...9 ....
....|..|D-2 .... ....|--- .... ....|C-4 .... ....
....|..|--- .... ....|--- .... ....|--- .... ....
....|..|--- .... ....|D-4 .... ....|C-4 .... ....
....|..|--- .... ....|--- .... ....|--- .... ....
....|..|--- .... ....|R-- .... ....|C-4 .... ....
....|..|--- .... ....|--- ...C ....|--- ...C ....
....|..|D-3 .... ....|E-2 .... ....|C-4 .... ....
....|..|--- .... ....|--- .... ....|--- ...9 ....
....|..|D-2 .... ....|G#2 .... ....|C-4 .... ....
....|..|--- .... ....|--- .... ....|--- .... ....
....|..|--- .... ....|A#2 .... ....|C-4 .... ....
....|..|--- .... ....|--- .... ....|--- .... ....
....|..|--- .... ....|D-3 .... ....|C-4 .... ....
....|..|--- .... ....|--- .... ....|--- ...C ....
....|..|D-3 .... ....|E-2 .... ....|C-4 .... ....
....|..|--- .... ....|--- .... ....|--- ...9 ....
....|..|D-2 .... ....|G#2 .... ....|C-4 .... ....
....|..|--- .... ....|--- .... ....|--- .... ....
....|..|--- .... ....|A#2 .... ....|C-4 .... ....
....|..|--- .... ....|--- .... ....|--- .... ....
....|..|D-3 .... ....|D-3 .... ....|C-4 .... ....
....|..|--- .... ....|--- .... ....|--- ...F ....
....|..|D-4 .... ....|E-2 .... ....|C-4 .... ....
....|..|--- .... ....|--- .... ....|--- .... ....
....|..|D-3 .... ....|G#2 .... ....|C-4 .... ....
....|..|--- .... ....|--- .... ....|--- ...9 ....
....|..|--- .... ....|A#2 .... ....|C-4 .... ....
....|..|--- .... ....|--- .... ....|--- .... ....
....|..|D-2 .... ....|D-3 .... ....|C-4 .... ....
....|..|--- .... ....|--- .... ....|--- ...C ....
....|..|D-3 .... ....|E-2 .... ....|C-4 .... ....
....|..|--- .... ....|--- .... ....|--- ...9 ....
....|..|D-2 .... ....|G#2 .... ....|C-4 .... ....
....|..|--- .... ....|--- .... ....|--- .... ....
....|..|--- .... ....|A#2 .... ....|C-4 .... ....
....|..|--- .... ....|--- .... ....|--- .... ....
....|..|--- .... ....|D-3 .... ....|C-4 .... ....
....|..|--- .... ....|--- .... ....|--- ...C ....
....|..|D-3 .... ....|E-2 .... ....|C-4 .... ....
....|..|--- .... ....|--- .... ....|--- ...9 ....
....|..|D-2 .... ....|G#2 .... ....|C-4 .... ....
....|..|--- .... ....|--- .... ....|--- .... ....
....|..|--- .... ....|A#2 .... ....|C-4 .... ....
....|..|--- .... ....|--- .... ....|--- .... ....
....|..|--- .... ....|D-3 .... ....|C-4 .... ....
....|..|--- .... ....|--- .... ....|--- ...C ....
....|..|D-3 .... ....|E-2 .... ....|C-4 .... ....
....|..|--- .... ....|--- .... ....|--- ...9 ....
....|..|D-2 .... ....|G#2 .... ....|C-4 .... ....
....|..|--- .... ....|--- .... ....|--- .... ....
....|..|--- .... ....|A#2 .... ....|C-4 .... ....
....|..|--- .... ....|--- .... ....|--- .... ....
....|..|D-3 .... ....|D-3 .... ....|C-4 .... ....
....|..|--- .... ....|--- .... ....|--- ...F ....
....|..|D-4 .... ....|E-2 .... ....|C-4 .... ....
....|..|--- .... ....|--- .... ....|--- .... ....
....|..|D-3 .... ....|G#2 .... ....|C-4 .... ....
....|..|--- .... ....|--- .... ....|--- ...9 ....
....|..|--- .... ....|A#2 .... ....|C-4 .... ....
....|..|--- .... ....|--- .... ....|--- .... ....
....|..|D-2 .... ....|D-3 .... ....|C-4 .... ....
....|..|--- .... ....|--- .... ....|--- ...C ....
....|..|D-3 .... ....|E-2 .... ....|C-4 .... ....
....|..|--- .... ....|--- .... ....|--- ...9 ....
....|..|D-2 .... ....|G#2 .... ....|C-4 .... ....
....|..|--- .... ....|--- .... ....|--- .... ....
....|..|--- .... ....|A#2 .... ....|C-4 .... ....
....|..|--- .... ....|--- .... ....|--- .... ....
....|..|--- .... ....|D-3 .... ....|C-4 .... ....
....|..|--- .... ....|--- .... ....|--- ...C ....
....|..|D-3 .... ....|E-2 .... ....|C-4 .... ....
....|..|--- .... ....|--- .... ....|--- ...9 ....
....|..|D-2 .... ....|G#2 .... ....|C-4 .... ....
....|..|--- .... ....|--- .... ....|--- .... ....
....|..|--- .... ....|A#2 .... ....|C-4 .... ....
....|..|--- .... ....|--- .... ....|--- .... ....
....|..|--- .... ....|D-3 .... ....|C-4 .... ....
....|..|--- .... ....|--- .... ....|--- ...C ....
....|..|D-3 .... ....|E-2 .... ....|C-4 .... ....
....|..|--- .... ....|--- .... ....|--- ...9 ....
....|..|D-2 .... ....|G#2 .... ....|C-4 .... ....
....|..|--- .... ....|--- .... ....|--- .... ....
....|..|--- .... ....|A#2 .... ....|C-4 .... ....
....|..|--- .... ....|--- .... ....|--- .... ....
....|..|D-3 .... ....|D-3 .... ....|C-4 .... ....
....|..|--- .... ....|--- .... ....|--- ...F ....
....|..|D-4 .... ....|E-2 .... ....|C-4 .... ....
....|..|--- .... ....|--- .... ....|--- .... ....
....|..|D-3 .... ....|G#2 .... ....|C-4 .... ....
....|..|--- .... ....|--- .... ....|--- ...9 ....
....|..|--- .... ....|A#2 .... ....|C-4 .... ....
....|..|--- .... ....|--- .... ....|--- .... ....
....|..|D-2 .... ....|D-3 .... ....|C-4 .... ....
....|..|--- .... ....|--- .... ....|--- ...C ....
....|..|D-3 .... ....|E-2 .... ....|C-4 .... ....
....|..|--- .... ....|--- .... ....|--- ...9 ....
....|..|D-2 .... ....|G#2 .... ....|C-4 .... ....
....|..|--- .... ....|--- .... ....|--- .... ....
....|..|--- .... ....|A#2 .... ....|C-4 .... ....
....|..|--- .... ....|--- .... ....|--- .... ....
....|..|--- .... ....|D-3 .... ....|C-4 .... ....
....|..|--- .... ....|--- .... ....|--- ...C ....
....|..|D-3 .... ....|E-2 .... ....|C-4 .... ....
....|..|--- .... ....|--- .... ....|--- ...9 ....
....|..|D-2 .... ....|G#2 .... ....|C-4 .... ....
....|..|--- .... ....|--- .... ....|--- .... ....
....|..|--- .... ....|A#2 .... ....|C-4 .... ....
....|..|--- .... ....|--- .... ....|--- .... ....
....|..|--- .... ....|D-3 .... ....|C-4 .... ....
....|..|--- .... ....|--- .... ....|--- ...C ....
....|..|D-3 .... ....|E-2 .... ....|C-4 .... ....
....|..|--- .... ....|--- .... ....|--- ...9 ....
....|..|D-2 .... ....|G#2 .... ....|C-4 .... ....
....|..|--- .... ....|--- .... ....|--- .... ....
....|..|--- .... ....|A#2 .... ....|C-4 .... ....
....|..|--- .... ....|--- .... ....|--- .... ....
....|..|D-3 .... ....|D-3 .... ....|C-4 .... ....
....|..|--- .... ....|--- .... ....|--- ...F ....
....|..|D-4 .... ....|E-2 .... ....|C-4 .... ....
....|..|--- .... ....|--- .... ....|--- .... ....
....|..|D-3 .... ....|G#2 .... ....|C-4 .... ....
....|..|--- .... ....|--- .... ....|--- ...9 ....
....|..|--- .... ....|A#2 .... ....|C-4 .... ....
....|..|--- .... ....|--- .... ....|--- .... ....
....|..|D-2 .... ....|D-3 .... ....|C-4 .... ....
....|..|--- .... ....|--- .... ....|--- ...C ....

[Pattern5]
....|..|D-3 .... ....|E-2 .... ....|C-4 .... ....
....|..|--- .... ....|--- .... ....|--- ...9 ....
....|..|D-2 .... ....|G#2 .... ....|C-4 .... ....
....|..|--- .... ....|--- .... ....|--- .... ....
....|..|--- .... ....|A#2 .... ....|C-4 .... ....
....|..|--- .... ....|--- .... ....|--- .... ....
....|..|--- .... ....|D-3 .... ....|C-4 .... ....
....|..|--- .... ....|--- ...D ....|--- ...C ....
....|..|D-3 .... ....|D-2 .... ....|C-4 .... ....
....|..|--- .... ....|--- .... ....|--- ...9 ....
....|..|D-2 .... ....|--- .... ....|C-4 .... ....
....|..|--- .... ....|--- .... ....|--- .... ....
....|..|--- .... ....|D-3 .... ....|C-4 .... ....
....|..|--- .... ....|--- .... ....|--- .... ....
....|..|--- .... ....|R-- .... ....|C-4 .... ....
....|..|--- .... ....|--- .... ....|--- ...C ....
....|..|D-3 .... ....|G#2 .... ....|C-4 .... ....
....|..|--- .... ....|--- .... ....|--- ...9 ....
....|..|D-2 .... ....|--- .... ....|C-4 .... ....
....|..|--- .... ....|--- .... ....|--- .... ....
....|..|--- .... ....|G#3 .... ....|C-4 .... ....
....|..|--- .... ....|--- .... ....|--- .... ....
....|..|D-3 .... ....|R-- .... ....|C-4 .... ....
....|..|--- .... ....|--- .... ....|--- ...F ....
....|..|D-4 .... ....|E-2 .... ....|C-4 .... ....
....|..|--- .... ....|--- .... ....|--- .... ....
....|..|D-3 .... ....|--- .... ....|C-4 .... ....
....|..|--- .... ....|--- .... ....|--- ...9 ....
....|..|--- .... ....|E-3 .... ....|C-4 .... ....
....|..|--- .... ....|--- .... ....|--- .... ....
....|..|D-2 .... ....|R-- .... ....|C-4 .... ....
....|..|--- .... ....|--- .... ....|--- ...C ....
....|..|D-3 .... ....|A#2 .... ....|C-4 .... ....
....|..|--- .... ....|--- .... ....|--- ...9 ....
....|..|D-2 .... ....|--- .... ....|C-4 .... ....
....|..|--- .... ....|--- .... ....|--- .... ....
....|..|--- .... ....|A#3 .... ....|C-4 .... ....
....|..|--- .... ....|--- .... ....|--- .... ....
....|..|--- .... ....|R-- .... ....|C-4 .... ....
....|..|--- .... ....|--- .... ....|--- ...C ....
....|..|D-3 .... ....|D-2 .... ....|C-4 .... ....
....|..|--- .... ....|--- .... ....|--- ...9 ....
....|..|D-2 .... ....|--- .... ....|C-4 .... ....
....|..|--- .... ....|--- .... ....|--- .... ....
....|..|--- .... ....|D-3 .... ....|C-4 .... ....
....|..|--- .... ....|--- .... ....|--- .... ....
....|..|--- .... ....|R-- .... ....|C-4 .... ....
....|..|--- .... ....|--- .... ....|--- ...C ....
....|..|D-3 .... ....|G#2 .... ....|C-4 .... ....
....|..|--- .... ....|--- .... ....|--- ...9 ....
....|..|D-2 .... ....|--- .... ....|C-4 .... ....
....|..|--- .... ....|--- .... ....|--- .... ....
....|..|--- .... ....|G#3 .... ....|C-4 .... ....
....|..|--- .... ....|--- .... ....|--- .... ....
....|..|D-3 .... ....|R-- .... ....|C-4 .... ....
....|..|--- .... ....|--- .... ....|--- ...F ....
....|..|D-4 .... ....|E-2 .... ....|C-4 .... ....
....|..|--- .... ....|--- .... ....|--- .... ....
....|..|D-3 .... ....|--- .... ....|C-4 .... ....
....|..|--- .... ....|--- .... ....|--- ...9 ....
....|..|--- .... ....|E-3 .... ....|C-4 .... ....
....|..|--- .... ....|--- .... ....|--- .... ....
....|..|D-2 .... ....|R-- .... ....|C-4 .... ....
....|..|--- .... ....|--- .... ....|--- ...C ....
....|..|D-3 .... ....|D-2 .... ....|C-4 .... ....
....|..|--- .... ....|--- .... ....|--- ...9 ....
....|..|D-2 .... ....|--- .... ....|C-4 .... ....
....|..|--- .... ....|--- .... ....|--- .... ....
....|..|--- .... ....|D-3 .... ....|C-4 .... ....
....|..|--- .... ....|--- .... ....|--- .... ....
....|..|--- .... ....|R-- .... ....|C-4 .... ....
....|..|--- .... ....|--- .... ....|--- ...C ....
....|..|D-3 .... ....|D-1 .... ....|C-4 .... ....
....|..|--- .... ....|--- .... ....|--- ...9 ....
....|..|D-2 .... ....|--- .... ....|C-4 .... ....
....|..|--- .... ....|--- .... ....|--- .... ....
....|..|--- .... ....|D-2 .... ....|C-4 .... ....
....|..|--- .... ....|--- .... ....|--- .... ....
....|..|--- .... ....|R-- .... ....|C-4 .... ....
....|..|--- .... ....|--- .... ....|--- ...C ....
....|..|D-3 .... ....|G#1 .... ....|C-4 .... ....
....|..|--- .... ....|--- .... ....|--- ...9 ....
....|..|D-2 .... ....|--- .... ....|C-4 .... ....
....|..|--- .... ....|--- .... ....|--- .... ....
....|..|--- .... ....|G#2 .... ....|C-4 .... ....
....|..|--- .... ....|--- .... ....|--- .... ....
....|..|D-3 .... ....|R-- .... ....|C-4 .... ....
....|..|--- .... ....|--- .... ....|--- ...F ....
....|..|D-4 .... ....|E-1 .... ....|C-4 .... ....
....|..|--- .... ....|--- .... ....|--- .... ....
....|..|D-3 .... ....|--- .... ....|C-4 .... ....
....|..|--- .... ....|--- .... ....|--- ...9 ....
....|..|--- .... ....|E-2 .... ....|C-4 .... ....
....|..|--- .... ....|--- .... ....|--- .... ....
....|..|D-2 .... ....|R-- .... ....|C-4 .... ....
....|..|--- .... ....|--- .... ....|--- ...C ....
....|..|D-3 .... ....|A#1 .... ....|C-4 .... ....
....|..|--- .... ....|--- .... ....|--- ...9 ....
....|..|D-2 .... ....|--- .... ....|C-4 .... ....
....|..|--- .... ....|--- .... ....|--- .... ....
....|..|--- .... ....|A#2 .... ....|C-4 .... ....
....|..|--- .... ....|--- .... ....|--- .... ....
....|..|--- .... ....|R-- .... ....|C-4 .... ....
....|..|--- .... ....|--- .... ....|--- ...C ....
....|..|D-3 .... ....|D-1 .... ....|C-4 .... ....
....|..|--- .... ....|--- .... ....|--- ...9 ....
....|..|D-2 .... ....|--- .... ....|C-4 .... ....
....|..|--- .... ....|--- .... ....|--- .... ....
....|..|--- .... ....|D-2 .... ....|C-4 .... ....
....|..|--- .... ....|--- .... ....|--- .... ....
....|..|--- .... ....|R-- .... ....|C-4 .... ....
....|..|--- .... ....|--- .... ....|--- ...C ....
....|..|D-3 .... ....|G#1 .... ....|C-4 .... ....
....|..|--- .... ....|--- .... ....|--- ...9 ....
....|..|D-2 .... ....|--- .... ....|C-4 .... ....
....|..|--- .... ....|--- .... ....|--- .... ....
....|..|--- .... ....|G#2 .... ....|C-4 .... ....
....|..|--- .... ....|--- .... ....|--- .... ....
....|..|D-3 .... ....|R-- .... ....|C-4 .... ....
....|..|--- .... ....|--- .... ....|--- ...F ....
....|..|D-4 .... ....|E-1 .... ....|C-4 .... ....
....|..|--- .... ....|--- .... ....|--- .... ....
....|..|D-3 .... ....|--- .... ....|C-4 .... ....
....|..|--- .... ....|--- .... ....|--- ...9 ....
....|..|--- .... ....|E-2 .... ....|C-4 .... ....
....|..|--- .... ....|--- .... ....|--- .... ....
....|..|D-2 .... ....|R-- .... ....|C-4 .... ....
....|..|--- .... ....|--- .... ....|--- ...C ....

[Pattern6]
....|..|D-3 .... ....|D-2 .... ....|C-4 .... ....
....|..|--- .... ....|--- .... ....|--- ...9 ....
....|..|D-2 .... ....|--- .... ....|C-4 .... ....
....|..|--- .... ....|--- .... ....|--- .... ....
....|..|--- .... ....|D-3 .... ....|C-4 .... ....
....|..|--- .... ....|--- .... ....|--- .... ....
....|..|--- .... ....|R-- .... ....|C-4 .... ....
....|..|--- .... ....|--- ...C ....|--- ...C ....
....|..|D-3 .... ....|E-1 .... ....|C-4 .... ....
....|..|--- .... ....|--- .... ....|--- ...9 ....
....|..|D-2 .... ....|G#1 .... ....|C-4 .... ....
....|..|--- .... ....|--- .... ....|--- .... ....
....|..|--- .... ....|A#1 .... ....|C-4 .... ....
....|..|--- .... ....|--- .... ....|--- .... ....
....|..|--- .... ....|D-2 .... ....|C-4 .... ....
....|..|--- .... ....|--- .... ....|--- ...C ....
....|..|D-3 .... ....|E-1 .... ....|C-4 .... ....
....|..|--- .... ....|--- .... ....|--- ...9 ....
....|..|D-2 .... ....|G#1 .... ....|C-4 .... ....
....|..|--- .... ....|--- .... ....|--- .... ....
....|..|--- .... ....|A#1 .... ....|C-4 .... ....
....|..|--- .... ....|--- .... ....|--- .... ....
....|..|D-3 .... ....|D-2 .... ....|C-4 .... ....
....|..|--- .... ....|--- .... ....|--- ...F ....
....|..|D-4 .... ....|E-1 .... ....|C-4 .... ....
....|..|--- .... ....|--- .... ....|--- .... ....
....|..|D-3 .... ....|G#1 .... ....|C-4 .... ....
....|..|--- .... ....|--- .... ....|--- ...9 ....
....|..|--- .... ....|A#1 .... ....|C-4 .... ....
....|..|--- .... ....|--- .... ....|--- .... ....
....|..|D-2 .... ....|D-2 .... ....|C-4 .... ....
....|..|--- .... ....|--- .... ....|--- ...C ....
....|..|D-3 .... ....|E-1 .... ....|C-4 .... ....
....|..|--- .... ....|--- .... ....|--- ...9 ....
....|..|D-2 .... ....|G#1 .... ....|C-4 .... ....
....|..|--- .... ....|--- .... ....|--- .... ....
....|..|--- .... ....|A#1 .... ....|C-4 .... ....
....|..|--- .... ....|--- .... ....|--- .... ....
....|..|--- .... ....|D-2 .... ....|C-4 .... ....
....|..|--- .... ....|--- .... ....|--- ...C ....
....|..|D-3 .... ....|E-1 .... ....|C-4 .... ....
....|..|--- .... ....|--- .... ....|--- ...9 ....
....|..|D-2 .... ....|G#1 .... ....|C-4 .... ....
....|..|--- .... ....|--- .... ....|--- .... ....
....|..|--- .... ....|A#1 .... ....|C-4 .... ....
....|..|--- .... ....|--- .... ....|--- .... ....
....|..|--- .... ....|D-2 .... ....|C-4 .... ....
....|..|--- .... ....|--- .... ....|--- ...C ....
....|..|D-3 .... ....|E-1 .... ....|C-4 .... ....
....|..|--- .... ....|--- .... ....|--- ...9 ....
....|..|D-2 .... ....|G#1 .... ....|C-4 .... ....
....|..|--- .... ....|--- .... ....|--- .... ....
....|..|--- .... ....|A#1 .... ....|C-4 .... ....
....|..|--- .... ....|--- .... ....|--- .... ....
....|..|D-3 .... ....|D-2 .... ....|C-4 .... ....
....|..|--- .... ....|--- .... ....|--- ...F ....
....|..|D-4 .... ....|E-1 .... ....|C-4 .... ....
....|..|--- .... ....|--- .... ....|--- .... ....
....|..|D-3 .... ....|G#1 .... ....|C-4 .... ....
....|..|--- .... ....|--- .... ....|--- ...9 ....
....|..|--- .... ....|A#1 .... ....|C-4 .... ....
....|..|--- .... ....|--- .... ....|--- .... ....
....|..|D-2 .... ....|D-2 .... ....|C-4 .... ....
....|..|--- .... ....|--- .... ....|--- ...C ....
....|..|D-3 .... ....|E-1 .... ....|C-4 .... ....
....|..|--- .... ....|--- .... ....|--- ...9 ....
....|..|D-2 .... ....|G#1 .... ....|C-4 .... ....
....|..|--- .... ....|--- .... ....|--- .... ....
....|..|--- .... ....|A#1 .... ....|C-4 .... ....
....|..|--- .... ....|--- .... ....|--- .... ....
....|..|--- .... ....|D-2 .... ....|C-4 .... ....
....|..|--- .... ....|--- .... ....|--- ...C ....
....|..|D-3 .... ....|E-1 .... ....|C-4 .... ....
....|..|--- .... ....|--- .... ....|--- ...9 ....
....|..|D-2 .... ....|G#1 .... ....|C-4 .... ....
....|..|--- .... ....|--- .... ....|--- .... ....
....|..|--- .... ....|A#1 .... ....|C-4 .... ....
....|..|--- .... ....|--- .... ....|--- .... ....
....|..|--- .... ....|D-2 .... ....|C-4 .... ....
....|..|--- .... ....|--- .... ....|--- ...C ....
....|..|D-3 .... ....|E-1 .... ....|C-4 .... ....
....|..|--- .... ....|--- .... ....|--- ...9 ....
....|..|D-2 .... ....|G#1 .... ....|C-4 .... ....
....|..|--- .... ....|--- .... ....|--- .... ....
....|..|--- .... ....|A#1 .... ....|C-4 .... ....
....|..|--- .... ....|--- .... ....|--- .... ....
....|..|D-3 .... ....|D-2 .... ....|C-4 .... ....
....|..|--- .... ....|--- .... ....|--- ...F ....
....|..|D-4 .... ....|E-1 .... ....|C-4 .... ....
....|..|--- .... ....|--- .... ....|--- .... ....
....|..|D-3 .... ....|G#1 .... ....|C-4 .... ....
....|..|--- .... ....|--- .... ....|--- ...9 ....
....|..|--- .... ....|A#1 .... ....|C-4 .... ....
....|..|--- .... ....|--- .... ....|--- .... ....
....|..|D-2 .... ....|D-2 .... ....|C-4 .... ....
....|..|--- .... ....|--- .... ....|--- ...C ....
....|..|D-3 .... ....|E-1 .... ....|C-4 .... ....
....|..|--- .... ....|--- .... ....|--- ...9 ....
....|..|D-2 .... ....|G#1 .... ....|C-4 .... ....
....|..|--- .... ....|--- .... ....|--- .... ....
....|..|--- .... ....|A#1 .... ....|C-4 .... ....
....|..|--- .... ....|--- .... ....|--- .... ....
....|..|--- .... ....|D-2 .... ....|C-4 .... ....
....|..|--- .... ....|--- .... ....|--- ...C ....
....|..|D-3 .... ....|E-1 .... ....|C-4 .... ....
....|..|--- .... ....|--- .... ....|--- ...9 ....
....|..|D-2 .... ....|G#1 .... ....|C-4 .... ....
....|..|--- .... ....|--- .... ....|--- .... ....
....|..|--- .... ....|A#1 .... ....|C-4 .... ....
....|..|--- .... ....|--- .... ....|--- .... ....
....|..|--- .... ....|D-2 .... ....|C-4 .... ....
....|..|--- .... ....|--- .... ....|--- ...C ....
....|..|D-3 .... ....|E-1 .... ....|C-4 .... ....
....|..|--- .... ....|--- .... ....|--- ...9 ....
....|..|D-2 .... ....|G#1 .... ....|C-4 .... ....
....|..|--- .... ....|--- .... ....|--- .... ....
....|..|--- .... ....|A#1 .... ....|C-4 .... ....
....|..|--- .... ....|--- .... ....|--- .... ....
....|..|D-3 .... ....|D-2 .... ....|C-4 .... ....
....|..|--- .... ....|--- .... ....|--- ...F ....
....|..|D-4 .... ....|E-1 .... ....|C-4 .... ....
....|..|--- .... ....|--- .... ....|--- .... ....
....|..|D-3 .... ....|G#1 .... ....|C-4 .... ....
....|..|--- .... ....|--- .... ....|--- ...9 ....
....|..|--- .... ....|A#1 .... ....|C-4 .... ....
....|..|--- .... ....|--- .... ....|--- .... ....
....|..|D-2 .... ....|D-2 .... ....|C-4 .... ....
....|..|--- .... ....|--- .... ....|--- ...C ....

[Pattern7]
....|..|D-3 .... ....|E-1 .... ....|C-4 .... ....
....|..|--- .... ....|--- .... ....|--- ...9 ....
....|..|D-2 .... ....|G#1 .... ....|C-4 .... ....
....|..|--- .... ....|--- .... ....|--- .... ....
....|..|--- .... ....|A#1 .... ....|C-4 .... ....
....|..|--- .... ....|--- .... ....|--- .... ....
....|..|--- .... ....|D-2 .... ....|C-4 .... ....
....|..|--- .... ....|--- ...C ....|--- ...C ....
....|..|D-3 .... ....|G#4 .... ....|C-4 .... ....
....|..|--- .... ....|--- .... ....|--- ...9 ....
....|..|D-2 .... ....|A#3 .... ....|C-4 .... ....
....|..|--- .... ....|--- .... ....|--- .... ....
....|..|--- .... ....|D-4 .... ....|C-4 .... ....
....|..|--- .... ....|--- .... ....|--- .... ....
....|..|--- .... ....|G#4 .... ....|C-4 .... ....
....|..|--- .... ....|--- .... ....|--- ...C ....
....|..|D-3 .... ....|A#3 .... ....|C-4 .... ....
....|..|--- .... ....|--- .... ....|--- ...9 ....
....|..|D-2 .... ....|D-4 .... ....|C-4 .... ....
....|..|--- .... ....|--- .... ....|--- .... ....
....|..|--- .... ....|G#4 .... ....|C-4 .... ....
....|..|--- .... ....|--- .... ....|--- .... ....
....|..|D-3 .... ....|A#3 .... ....|C-4 .... ....
....|..|--- .... ....|--- .... ....|--- ...F ....
....|..|D-4 .... ....|D-4 .... ....|C-4 .... ....
....|..|--- .... ....|--- .... ....|--- .... ....
....|..|D-3 .... ....|G#4 .... ....|C-4 .... ....
....|..|--- .... ....|--- .... ....|--- ...9 ....
....|..|--- .... ....|A#3 .... ....|C-4 .... ....
....|..|--- .... ....|--- .... ....|--- .... ....
....|..|D-2 .... ....|D-4 .... ....|C-4 .... ....
....|..|--- .... ....|--- .... ....|--- ...C ....
....|..|D-3 .... ....|G#4 .... ....|C-4 .... ....
....|..|--- .... ....|--- .... ....|--- ...9 ....
....|..|D-2 .... ....|A#3 .... ....|C-4 .... ....
....|..|--- .... ....|--- .... ....|--- .... ....
....|..|--- .... ....|G#4 .... ....|C-4 .... ....
....|..|--- .... ....|--- .... ....|--- .... ....
....|..|--- .... ....|A#3 .... ....|C-4 .... ....
....|..|--- .... ....|--- .... ....|--- ...C ....
....|..|D-3 .... ....|G#4 .... ....|C-4 .... ....
....|..|--- .... ....|--- .... ....|--- ...9 ....
....|..|D-2 .... ....|A#3 .... ....|C-4 .... ....
....|..|--- .... ....|--- .... ....|--- .... ....
....|..|--- .... ....|D-4 .... ....|C-4 .... ....
....|..|--- .... ....|--- .... ....|--- .... ....
....|..|--- .... ....|G#4 .... ....|C-4 .... ....
....|..|--- .... ....|--- .... ....|--- ...C ....
....|..|D-3 .... ....|A#3 .... ....|C-4 .... ....
....|..|--- .... ....|--- .... ....|--- ...9 ....
....|..|D-2 .... ....|D-4 .... ....|C-4 .... ....
....|..|--- .... ....|--- .... ....|--- .... ....
....|..|--- .... ....|G#4 .... ....|C-4 .... ....
....|..|--- .... ....|--- .... ....|--- .... ....
....|..|D-3 .... ....|A#3 .... ....|C-4 .... ....
....|..|--- .... ....|--- .... ....|--- ...F ....
....|..|D-4 .... ....|D-4 .... ....|C-4 .... ....
....|..|--- .... ....|--- .... ....|--- .... ....
....|..|D-3 .... ....|G#4 .... ....|C-4 .... ....
....|..|--- .... ....|--- .... ....|--- ...9 ....
....|..|--- .... ....|A#3 .... ....|C-4 .... ....
....|..|--- .... ....|--- .... ....|--- .... ....
....|..|D-2 .... ....|D-4 .... ....|C-4 .... ....
....|..|--- .... ....|--- .... ....|--- ...C ....
....|..|D-3 .... ....|G#4 .... ....|C-4 .... ....
....|..|--- .... ....|--- .... ....|--- ...9 ....
....|..|D-2 .... ....|A#3 .... ....|C-4 .... ....
....|..|--- .... ....|--- .... ....|--- .... ....
....|..|--- .... ....|G#4 .... ....|C-4 .... ....
....|..|--- .... ....|--- .... ....|--- .... ....
....|..|--- .... ....|A#3 .... ....|C-4 .... ....
....|..|--- .... ....|--- .... ....|--- ...C ....
....|..|D-3 .... ....|G#4 .... ....|C-4 .... ....
....|..|--- .... ....|--- .... ....|--- ...9 ....
....|..|D-2 .... ....|A#3 .... ....|C-4 .... ....
....|..|--- .... ....|--- .... ....|--- .... ....
....|..|--- .... ....|D-4 .... ....|C-4 .... ....
....|..|--- .... ....|--- .... ....|--- .... ....
....|..|--- .... ....|G#4 .... ....|C-4 .... ....
....|..|--- .... ....|--- .... ....|--- ...C ....
....|..|D-3 .... ....|A#3 .... ....|C-4 .... ....
....|..|--- .... ....|--- .... ....|--- ...9 ....
....|..|D-2 .... ....|D-4 .... ....|C-4 .... ....
....|..|--- .... ....|--- .... ....|--- .... ....
....|..|--- .... ....|G#4 .... ....|C-4 .... ....
....|..|--- .... ....|--- .... ....|--- .... ....
....|..|D-3 .... ....|A#3 .... ....|C-4 .... ....
....|..|--- .... ....|--- .... ....|--- ...F ....
....|..|D-4 .... ....|D-4 .... ....|C-4 .... ....
....|..|--- .... ....|--- .... ....|--- .... ....
....|..|D-3 .... ....|G#4 .... ....|C-4 .... ....
....|..|--- .... ....|--- .... ....|--- ...9 ....
....|..|--- .... ....|A#3 .... ....|C-4 .... ....
....|..|--- .... ....|--- .... ....|--- .... ....
....|..|D-2 .... ....|D-4 .... ....|C-4 .... ....
....|..|--- .... ....|--- .... ....|--- ...C ....
....|..|D-3 .... ....|G#4 .... ....|C-4 .... ....
....|..|--- .... ....|--- .... ....|--- ...9 ....
....|..|D-2 .... ....|A#3 .... ....|C-4 .... ....
....|..|--- .... ....|--- .... ....|--- .... ....
....|..|--- .... ....|G#4 .... ....|C-4 .... ....
....|..|--- .... ....|--- .... ....|--- .... ....
....|..|--- .... ....|A#3 .... ....|C-4 .... ....
....|..|--- .... ....|--- .... ....|--- ...C ....
....|..|D-3 .... ....|G#4 .... ....|C-4 .... ....
....|..|--- .... ....|--- .... ....|--- ...9 ....
....|..|D-2 .... ....|A#3 .... ....|C-4 .... ....
....|..|--- .... ....|--- .... ....|--- .... ....
....|..|--- .... ....|D-4 .... ....|C-4 .... ....
....|..|--- .... ....|--- .... ....|--- .... ....
....|..|--- .... ....|G#4 .... ....|C-4 .... ....
....|..|--- .... ....|--- .... ....|--- ...C ....
....|..|D-3 .... ....|A#3 .... ....|C-4 .... ....
....|..|--- .... ....|--- .... ....|--- ...9 ....
....|..|D-2 .... ....|D-4 .... ....|C-4 .... ....
....|..|--- .... ....|--- .... ....|--- .... ....
....|..|--- .... ....|G#4 .... ....|C-4 .... ....
....|..|--- .... ....|--- .... ....|--- .... ....
....|..|D-3 .... ....|A#3 .... ....|C-4 .... ....
....|..|--- .... ....|--- .... ....|--- ...F ....
....|..|D-4 .... ....|D-4 .... ....|C-4 .... ....
....|..|--- .... ....|--- ...D ....|--- .... ....
....|..|D-3 .... ....|G#4 .... ....|C-4 .... ....
....|..|--- .... ....|--- .... ....|--- ...9 ....
....|..|--- .... ....|G#3 .... ....|C-4 .... ....
....|..|--- .... ....|--- .... ....|--- .... ....
....|..|D-2 .... ....|A#3 .... ....|C-4 .... ....
....|..|--- .... ....|--- .... ....|--- ...C ....

[Pattern8]
....|..|D-2 .... ....|D-4 .... ....|C-4 .... ....
....|..|--- .... ....|--- .... ....|--- ...9 ....
....|..|--- .... ....|E-4 .... ....|C-4 .... ....
....|..|--- .... ....|--- .... ....|--- .... ....
....|..|D-3 .... ....|G#4 .... ....|C-4 .... ....
....|..|--- .... ....|--- .... ....|--- .... ....
....|..|R-- .... ....|A#4 .... ....|C-4 .... ....
....|..|--- .... ....|--- .... ....|--- ...F ....
....|..|G#2 .... ....|E-5 .... ....|C-4 .... ....
....|..|--- .... ....|--- .... ....|--- ...9 ....
....|..|--- .... ....|G#4 .... ....|C-4 .... ....
....|..|--- .... ....|--- .... ....|--- .... ....
....|..|G#3 .... ....|A#3 .... ....|C-4 .... ....
....|..|--- .... ....|--- .... ....|--- .... ....
....|..|R-- .... ....|D-4 .... ....|C-4 .... ....
....|..|--- .... ....|--- .... ....|--- ...C ....
....|..|E-2 .... ....|G#4 .... ....|C-4 .... ....
....|..|--- .... ....|--- .... ....|--- ...9 ....
....|..|--- .... ....|A#3 .... ....|C-4 .... ....
....|..|--- .... ....|--- .... ....|--- .... ....
....|..|E-3 .... ....|D-4 .... ....|C-4 .... ....
....|..|--- .... ....|--- .... ....|--- .... ....
....|..|R-- .... ....|G#4 .... ....|C-4 .... ....
....|..|--- .... ....|--- .... ....|--- ...F ....
....|..|A#2 .... ....|A#3 .... ....|C-4 .... ....
....|..|--- .... ....|--- .... ....|--- ...9 ....
....|..|--- .... ....|D-4 .... ....|C-4 .... ....
....|..|--- .... ....|--- .... ....|--- .... ....
....|..|A#3 .... ....|G#4 .... ....|C-4 .... ....
....|..|--- .... ....|--- .... ....|--- .... ....
....|..|R-- .... ....|A#3 .... ....|C-4 .... ....
....|..|--- .... ....|--- .... ....|--- ...C ....
....|..|D-2 .... ....|D-4 .... ....|C-4 .... ....
....|..|--- .... ....|--- .... ....|--- ...9 ....
....|..|--- .... ....|G#4 .... ....|C-4 .... ....
....|..|--- .... ....|--- .... ....|--- .... ....
....|..|D-3 .... ....|A#3 .... ....|C-4 .... ....
....|..|--- .... ....|--- .... ....|--- .... ....
....|..|R-- .... ....|G#4 .... ....|C-4 .... ....
....|..|--- .... ....|--- .... ....|--- ...F ....
....|..|G#2 .... ....|A#3 .... ....|C-4 .... ....
....|..|--- .... ....|--- .... ....|--- ...9 ....
....|..|--- .... ....|G#4 .... ....|C-4 .... ....
....|..|--- .... ....|--- .... ....|--- .... ....
....|..|G#3 .... ....|A#3 .... ....|C-4 .... ....
....|..|--- .... ....|--- .... ....|--- .... ....
....|..|R-- .... ....|D-4 .... ....|C-4 .... ....
....|..|--- .... ....|--- .... ....|--- ...C ....
....|..|E-2 .... ....|G#4 .... ....|C-4 .... ....
....|..|--- .... ....|--- .... ....|--- ...9 ....
....|..|--- .... ....|A#3 .... ....|C-4 .... ....
....|..|--- .... ....|--- .... ....|--- .... ....
....|..|E-3 .... ....|D-4 .... ....|C-4 .... ....
....|..|--- .... ....|--- .... ....|--- .... ....
....|..|R-- .... ....|G#4 .... ....|C-4 .... ....
....|..|--- .... ....|--- .... ....|--- ...F ....
....|..|D-2 .... ....|A#3 .... ....|C-4 .... ....
....|..|--- .... ....|--- .... ....|--- ...9 ....
....|..|--- .... ....|D-4 .... ....|C-4 .... ....
....|..|--- .... ....|--- .... ....|--- .... ....
....|..|D-3 .... ....|G#4 .... ....|C-4 .... ....
....|..|--- .... ....|--- .... ....|--- .... ....
....|..|R-- .... ....|A#3 .... ....|C-4 .... ....
....|..|--- .... ....|--- .... ....|--- ...C ....
....|..|D-1 .... ....|D-4 .... ....|C-4 .... ....
....|..|--- .... ....|--- .... ....|--- ...9 ....
....|..|--- .... ....|G#4 .... ....|C-4 .... ....
....|..|--- .... ....|--- .... ....|--- .... ....
....|..|D-2 .... ....|A#3 .... ....|C-4 .... ....
....|..|--- .... ....|--- .... ....|--- .... ....
....|..|R-- .... ....|G#4 .... ....|C-4 .... ....
....|..|--- .... ....|--- .... ....|--- ...F ....
....|..|G#1 .... ....|A#3 .... ....|C-4 .... ....
....|..|--- .... ....|--- .... ....|--- ...9 ....
....|..|--- .... ....|G#4 .... ....|C-4 .... ....
....|..|--- .... ....|--- .... ....|--- .... ....
....|..|G#2 .... ....|A#3 .... ....|C-4 .... ....
....|..|--- .... ....|--- .... ....|--- .... ....
....|..|R-- .... ....|D-4 .... ....|C-4 .... ....
....|..|--- .... ....|--- .... ....|--- ...C ....
....|..|E-1 .... ....|G#4 .... ....|C-4 .... ....
....|..|--- .... ....|--- .... ....|--- ...9 ....
....|..|--- .... ....|A#3 .... ....|C-4 .... ....
....|..|--- .... ....|--- .... ....|--- .... ....
....|..|E-2 .... ....|D-4 .... ....|C-4 .... ....
....|..|--- .... ....|--- .... ....|--- .... ....
....|..|R-- .... ....|G#4 .... ....|C-4 .... ....
....|..|--- .... ....|--- .... ....|--- ...F ....
....|..|A#1 .... ....|A#3 .... ....|C-4 .... ....
....|..|--- .... ....|--- .... ....|--- ...9 ....
....|..|--- .... ....|D-4 .... ....|C-4 .... ....
....|..|--- .... ....|--- .... ....|--- .... ....
....|..|A#2 .... ....|G#4 .... ....|C-4 .... ....
....|..|--- .... ....|--- .... ....|--- .... ....
....|..|R-- .... ....|A#3 .... ....|C-4 .... ....
....|..|--- .... ....|--- .... ....|--- ...C ....
....|..|D-1 .... ....|D-4 .... ....|C-4 .... ....
....|..|--- .... ....|--- .... ....|--- ...9 ....
....|..|--- .... ....|G#4 .... ....|C-4 .... ....
....|..|--- .... ....|--- .... ....|--- .... ....
....|..|D-2 .... ....|A#3 .... ....|C-4 .... ....
....|..|--- .... ....|--- .... ....|--- .... ....
....|..|R-- .... ....|G#4 .... ....|C-4 .... ....
....|..|--- .... ....|--- .... ....|--- ...F ....
....|..|G#1 .... ....|A#3 .... ....|C-4 .... ....
....|..|--- .... ....|--- .... ....|--- ...9 ....
....|..|--- .... ....|G#4 .... ....|C-4 .... ....
....|..|--- .... ....|--- .... ....|--- .... ....
....|..|G#2 .... ....|A#3 .... ....|C-4 .... ....
....|..|--- .... ....|--- .... ....|--- .... ....
....|..|R-- .... ....|D-4 .... ....|C-4 .... ....
....|..|--- .... ....|--- .... ....|--- ...C ....
....|..|E-1 .... ....|G#4 .... ....|C-4 .... ....
....|..|--- .... ....|--- .... ....|--- ...9 ....
....|..|--- .... ....|A#3 .... ....|C-4 .... ....
....|..|--- .... ....|--- .... ....|--- .... ....
....|..|E-2 .... ....|D-4 .... ....|C-4 .... ....
....|..|--- .... ....|--- .... ....|--- .... ....
....|..|R-- .... ....|G#4 .... ....|C-4 .... ....
....|..|--- .... ....|--- .... ....|--- ...F ....
....|..|D-2 .... ....|A#3 .... ....|C-4 .... ....
....|..|--- .... ....|--- .... ....|--- ...9 ....
....|..|--- .... ....|D-4 .... ....|C-4 .... ....
....|..|--- .... ....|--- ...E ....|--- .... ....
....|..|D-3 .... ....|G#4 .... ....|C-4 .... ....
....|..|--- .... ....|--- .... ....|--- .... ....
....|..|R-- .... ....|G#3 .... ....|C-4 .... ....
....|..|--- .... ....|--- .... ....|--- ...C ....

[Pattern9]
....|..|D-1 .... ....|A#3 .... ....|C-4 .... ....
....|..|--- .... ....|--- .... ....|--- ...9 ....
....|..|--- .... ....|D-4 .... ....|C-4 .... ....
....|..|--- .... ....|--- .... ....|--- .... ....
....|..|D-2 .... ....|E-4 .... ....|C-4 .... ....
....|..|--- .... ....|--- .... ....|--- .... ....
....|..|R-- .... ....|G#4 .... ....|C-4 .... ....
....|..|--- .... ....|--- .... ....|--- ...F ....
....|..|G#1 .... ....|A#4 .... ....|C-4 .... ....
....|..|--- .... ....|--- .... ....|--- ...9 ....
....|..|--- .... ....|E-5 .... ....|C-4 .... ....
....|..|--- .... ....|--- .... ....|--- .... ....
....|..|G#2 .... ....|G#4 .... ....|C-4 .... ....
....|..|--- .... ....|--- .... ....|--- .... ....
....|..|R-- .... ....|A#3 .... ....|C-4 .... ....
....|..|--- .... ....|--- .... ....|--- ...C ....
....|..|E-1 .... ....|D-4 .... ....|C-4 .... ....
....|..|--- .... ....|--- .... ....|--- ...9 ....
....|..|--- .... ....|G#4 .... ....|C-4 .... ....
....|..|--- .... ....|--- .... ....|--- .... ....
....|..|E-2 .... ....|A#3 .... ....|C-4 .... ....
....|..|--- .... ....|--- .... ....|--- .... ....
....|..|R-- .... ....|D-4 .... ....|C-4 .... ....
....|..|--- .... ....|--- .... ....|--- ...F ....
....|..|A#1 .... ....|G#4 .... ....|C-4 .... ....
....|..|--- .... ....|--- .... ....|--- ...9 ....
....|..|--- .... ....|A#3 .... ....|C-4 .... ....
....|..|--- .... ....|--- .... ....|--- .... ....
....|..|A#2 .... ....|D-4 .... ....|C-4 .... ....
....|..|--- .... ....|--- .... ....|--- .... ....
....|..|R-- .... ....|G#4 .... ....|C-4 .... ....
....|..|--- .... ....|--- .... ....|--- ...C ....
....|..|D-1 .... ....|A#3 .... ....|C-4 .... ....
....|..|--- .... ....|--- .... ....|--- ...9 ....
....|..|--- .... ....|D-4 .... ....|C-4 .... ....
....|..|--- .... ....|--- .... ....|--- .... ....
....|..|D-2 .... ....|G#4 .... ....|C-4 .... ....
....|..|--- .... ....|--- .... ....|--- .... ....
....|..|R-- .... ....|A#3 .... ....|C-4 .... ....
....|..|--- .... ....|--- .... ....|--- ...F ....
....|..|G#1 .... ....|G#4 .... ....|C-4 .... ....
....|..|--- .... ....|--- .... ....|--- ...9 ....
....|..|--- .... ....|A#3 .... ....|C-4 .... ....
....|..|--- .... ....|--- .... ....|--- .... ....
....|..|G#2 .... ....|G#4 .... ....|C-4 .... ....
....|..|--- .... ....|--- .... ....|--- .... ....
....|..|R-- .... ....|A#3 .... ....|C-4 .... ....
....|..|--- .... ....|--- .... ....|--- ...C ....
....|..|E-1 .... ....|D-4 .... ....|C-4 .... ....
....|..|--- .... ....|--- .... ....|--- ...9 ....
....|..|--- .... ....|G#4 .... ....|C-4 .... ....
....|..|--- .... ....|--- .... ....|--- .... ....
....|..|E-2 .... ....|A#3 .... ....|C-4 .... ....
....|..|--- .... ....|--- .... ....|--- .... ....
....|..|R-- .... ....|D-4 .... ....|C-4 .... ....
....|..|--- .... ....|--- .... ....|--- ...F ....
....|..|D-2 .... ....|G#4 .... ....|C-4 .... ....
....|..|--- .... ....|--- .... ....|--- ...9 ....
....|..|--- .... ....|A#3 .... ....|C-4 .... ....
....|..|--- .... ....|--- .... ....|--- .... ....
....|..|D-3 .... ....|D-4 .... ....|C-4 .... ....
....|..|--- .... ....|--- .... ....|--- .... ....
....|..|R-- .... ....|G#4 .... ....|C-4 .... ....
....|..|--- .... ....|--- .... ....|--- ...C ....
....|..|D-1 .... ....|A#3 .... ....|C-4 .... ....
....|..|--- .... ....|--- .... ....|--- ...9 ....
....|..|--- .... ....|D-4 .... ....|C-4 .... ....
....|..|--- .... ....|--- .... ....|--- .... ....
....|..|D-2 .... ....|G#4 .... ....|C-4 .... ....
....|..|--- .... ....|--- .... ....|--- .... ....
....|..|R-- .... ....|A#3 .... ....|C-4 .... ....
....|..|--- .... ....|--- .... ....|--- ...F ....
....|..|G#1 .... ....|G#4 .... ....|C-4 .... ....
....|..|--- .... ....|--- .... ....|--- ...9 ....
....|..|--- .... ....|A#3 .... ....|C-4 .... ....
....|..|--- .... ....|--- .... ....|--- .... ....
....|..|G#2 .... ....|G#4 .... ....|C-4 .... ....
....|..|--- .... ....|--- .... ....|--- .... ....
....|..|R-- .... ....|A#3 .... ....|C-4 .... ....
....|..|--- .... ....|--- .... ....|--- ...C ....
....|..|E-1 .... ....|D-4 .... ....|C-4 .... ....
....|..|--- .... ....|--- .... ....|--- ...9 ....
....|..|--- .... ....|G#4 .... ....|C-4 .... ....
....|..|--- .... ....|--- .... ....|--- .... ....
....|..|E-2 .... ....|A#3 .... ....|C-4 .... ....
....|..|--- .... ....|--- .... ....|--- .... ....
....|..|R-- .... ....|D-4 .... ....|C-4 .... ....
....|..|--- .... ....|--- .... ....|--- ...F ....
....|..|A#1 .... ....|G#4 .... ....|C-4 .... ....
....|..|--- .... ....|--- .... ....|--- ...9 ....
....|..|--- .... ....|A#3 .... ....|C-4 .... ....
....|..|--- .... ....|--- .... ....|--- .... ....
....|..|A#2 .... ....|D-4 .... ....|C-4 .... ....
....|..|--- .... ....|--- .... ....|--- .... ....
....|..|R-- .... ....|G#4 .... ....|C-4 .... ....
....|..|--- .... ....|--- .... ....|--- ...C ....
....|..|D-1 .... ....|A#3 .... ....|C-4 .... ....
....|..|--- .... ....|--- .... ....|--- ...9 ....
....|..|--- .... ....|D-4 .... ....|C-4 .... ....
....|..|--- .... ....|--- .... ....|--- .... ....
....|..|D-2 .... ....|G#4 .... ....|C-4 .... ....
....|..|--- .... ....|--- .... ....|--- .... ....
....|..|R-- .... ....|A#3 .... ....|C-4 .... ....
....|..|--- .... ....|--- .... ....|--- ...F ....
....|..|G#1 .... ....|G#4 .... ....|C-4 .... ....
....|..|--- .... ....|--- .... ....|--- ...9 ....
....|..|--- .... ....|A#3 .... ....|C-4 .... ....
....|..|--- .... ....|--- .... ....|--- .... ....
....|..|G#2 .... ....|G#4 .... ....|C-4 .... ....
....|..|--- .... ....|--- .... ....|--- .... ....
....|..|R-- .... ....|A#3 .... ....|C-4 .... ....
....|..|--- .... ....|--- .... ....|--- ...C ....
....|..|E-1 .... ....|D-4 .... ....|C-4 .... ....
....|..|--- .... ....|--- .... ....|--- ...9 ....
....|..|--- .... ....|G#4 .... ....|C-4 .... ....
....|..|--- .... ....|--- .... ....|--- .... ....
....|..|E-2 .... ....|A#3 .... ....|C-4 .... ....
....|..|--- .... ....|--- .... ....|--- .... ....
....|..|R-- .... ....|D-4 .... ....|C-4 .... ....
....|..|--- .... ....|--- .... ....|--- ...F ....
....|..|D-2 .... ....|G#4 .... ....|C-4 .... ....
....|..|--- .... ....|--- .... ....|--- ...9 ....
....|..|--- .... ....|A#3 .... ....|C-4 .... ....
....|..|--- .... ....|--- .... ....|--- .... ....
....|..|D-3 .... ....|D-4 .... ....|C-4 .... ....
....|..|--- .... ....|--- ...F ....|--- .... ....
....|..|R-- .... ....|G#4 .... ....|C-4 .... ....
....|..|--- .... ....|--- .... ....|--- ...C ....

[Pattern10]
....|..|D-1 .... ....|G#3 .... ....|C-4 .... ....
....|..|--- .... ....|--- .... ....|--- ...9 ....
....|..|--- .... ....|A#3 .... ....|C-4 .... ....
....|..|--- .... ....|--- .... ....|--- .... ....
....|..|D-2 .... ....|D-4 .... ....|C-4 .... ....
....|..|--- .... ....|--- .... ....|--- .... ....
....|..|R-- .... ....|E-4 .... ....|C-4 .... ....
....|..|--- .... ....|--- .... ....|--- ...F ....
....|..|G#1 .... ....|G#4 .... ....|C-4 .... ....
....|..|--- .... ....|--- .... ....|--- ...9 ....
....|..|--- .... ....|A#4 .... ....|C-4 .... ....
....|..|--- .... ....|--- .... ....|--- .... ....
....|..|G#2 .... ....|E-5 .... ....|C-4 .... ....
....|..|--- .... ....|--- .... ....|--- .... ....
....|..|R-- .... ....|G#4 .... ....|C-4 .... ....
....|..|--- .... ....|--- .... ....|--- ...C ....
....|..|E-1 .... ....|A#3 .... ....|C-4 .... ....
....|..|--- .... ....|--- .... ....|--- ...9 ....
....|..|--- .... ....|D-4 .... ....|C-4 .... ....
....|..|--- .... ....|--- .... ....|--- .... ....
....|..|E-2 .... ....|G#4 .... ....|C-4 .... ....
....|..|--- .... ....|--- .... ....|--- .... ....
....|..|R-- .... ....|A#3 .... ....|C-4 .... ....
....|..|--- .... ....|--- .... ....|--- ...F ....
....|..|A#1 .... ....|D-4 .... ....|C-4 .... ....
....|..|--- .... ....|--- .... ....|--- ...9 ....
....|..|--- .... ....|G#4 .... ....|C-4 .... ....
....|..|--- .... ....|--- .... ....|--- .... ....
....|..|A#2 .... ....|A#3 .... ....|C-4 .... ....
....|..|--- .... ....|--- .... ....|--- .... ....
....|..|R-- .... ....|D-4 .... ....|C-4 .... ....
....|..|--- .... ....|--- .... ....|--- ...C ....
....|..|D-1 .... ....|G#4 .... ....|C-4 .... ....
....|..|--- .... ....|--- .... ....|--- ...9 ....
....|..|--- .... ....|A#3 .... ....|C-4 .... ....
....|..|--- .... ....|--- .... ....|--- .... ....
....|..|D-2 .... ....|D-4 .... ....|C-4 .... ....
....|..|--- .... ....|--- .... ....|--- .... ....
....|..|R-- .... ....|G#4 .... ....|C-4 .... ....
....|..|--- .... ....|--- .... ....|--- ...F ....
....|..|G#1 .... ....|A#3 .... ....|C-4 .... ....
....|..|--- .... ....|--- .... ....|--- ...9 ....
....|..|--- .... ....|G#4 .... ....|C-4 .... ....
....|..|--- .... ....|--- .... ....|--- .... ....
....|..|G#2 .... ....|A#3 .... ....|C-4 .... ....
....|..|--- .... ....|--- .... ....|--- .... ....
....|..|R-- .... ....|G#4 .... ....|C-4 .... ....
....|..|--- .... ....|--- .... ....|--- ...C ....
....|..|E-1 .... ....|A#3 .... ....|C-4 .... ....
....|..|--- .... ....|--- .... ....|--- ...9 ....
....|..|--- .... ....|D-4 .... ....|C-4 .... ....
....|..|--- .... ....|--- .... ....|--- .... ....
....|..|E-2 .... ....|G#4 .... ....|C-4 .... ....
....|..|--- .... ....|--- .... ....|--- .... ....
....|..|R-- .... ....|A#3 .... ....|C-4 .... ....
....|..|--- .... ....|--- .... ....|--- ...F ....
....|..|D-2 .... ....|D-4 .... ....|C-4 .... ....
....|..|--- .... ....|--- .... ....|--- ...9 ....
....|..|--- .... ....|G#4 .... ....|C-4 .... ....
....|..|--- .... ....|--- .... ....|--- .... ....
....|..|D-3 .... ....|A#3 .... ....|C-4 .... ....
....|..|--- .... ....|--- .... ....|--- .... ....
....|..|R-- .... ....|D-4 .... ....|C-4 .... ....
....|..|--- .... ....|--- .... ....|--- ...C ....
....|..|D-1 .... ....|G#4 .... ....|C-4 .... ....
....|..|--- .... ....|--- .... ....|--- ...9 ....
....|..|--- .... ....|A#3 .... ....|C-4 .... ....
....|..|--- .... ....|--- .... ....|--- .... ....
....|..|D-2 .... ....|D-4 .... ....|C-4 .... ....
....|..|--- .... ....|--- .... ....|--- .... ....
....|..|R-- .... ....|G#4 .... ....|C-4 .... ....
....|..|--- .... ....|--- .... ....|--- ...F ....
....|..|G#1 .... ....|A#3 .... ....|C-4 .... ....
....|..|--- .... ....|--- .... ....|--- ...9 ....
....|..|--- .... ....|G#4 .... ....|C-4 .... ....
....|..|--- .... ....|--- .... ....|--- .... ....
....|..|G#2 .... ....|A#3 .... ....|C-4 .... ....
....|..|--- .... ....|--- .... ....|--- .... ....
....|..|R-- .... ....|G#4 .... ....|C-4 .... ....
....|..|--- .... ....|--- .... ....|--- ...C ....
....|..|E-1 .... ....|A#3 .... ....|C-4 .... ....
....|..|--- .... ....|--- .... ....|--- ...9 ....
....|..|--- .... ....|D-4 .... ....|C-4 .... ....
....|..|--- .... ....|--- .... ....|--- .... ....
....|..|E-2 .... ....|G#4 .... ....|C-4 .... ....
....|..|--- .... ....|--- .... ....|--- .... ....
....|..|R-- .... ....|A#3 .... ....|C-4 .... ....
....|..|--- .... ....|--- .... ....|--- ...F ....
....|..|A#1 .... ....|D-4 .... ....|C-4 .... ....
....|..|--- .... ....|--- .... ....|--- ...9 ....
....|..|--- .... ....|G#4 .... ....|C-4 .... ....
....|..|--- .... ....|--- .... ....|--- .... ....
....|..|A#2 .... ....|A#3 .... ....|C-4 .... ....
....|..|--- .... ....|--- .... ....|--- .... ....
....|..|R-- .... ....|D-4 .... ....|C-4 .... ....
....|..|--- .... ....|--- .... ....|--- ...C ....
....|..|D-1 .... ....|G#4 .... ....|C-4 .... ....
....|..|--- .... ....|--- .... ....|--- ...9 ....
....|..|--- .... ....|A#3 .... ....|C-4 .... ....
....|..|--- .... ....|--- .... ....|--- .... ....
....|..|D-2 .... ....|D-4 .... ....|C-4 .... ....
....|..|--- .... ....|--- .... ....|--- .... ....
....|..|R-- .... ....|G#4 .... ....|C-4 .... ....
....|..|--- .... ....|--- .... ....|--- ...F ....
....|..|G#1 .... ....|A#3 .... ....|C-4 .... ....
....|..|--- .... ....|--- .... ....|--- ...9 ....
....|..|--- .... ....|G#4 .... ....|C-4 .... ....
....|..|--- .... ....|--- .... ....|--- .... ....
....|..|G#2 .... ....|A#3 .... ....|C-4 .... ....
....|..|--- .... ....|--- .... ....|--- .... ....
....|..|R-- .... ....|G#4 .... ....|C-4 .... ....
....|..|--- .... ....|--- .... ....|--- ...C ....
....|..|E-1 .... ....|A#3 .... ....|C-4 .... ....
....|..|--- .... ....|--- .... ....|--- ...9 ....
....|..|--- .... ....|D-4 .... ....|C-4 .... ....
....|..|--- .... ....|--- .... ....|--- .... ....
....|..|E-2 .... ....|G#4 .... ....|C-4 .... ....
....|..|--- .... ....|--- .... ....|--- .... ....
....|..|R-- .... ....|A#3 .... ....|C-4 .... ....
....|..|--- .... ....|--- .... ....|--- ...F ....
....|..|D-2 .... ....|D-4 .... ....|C-4 .... ....
....|..|--- .... ....|--- .... ....|--- ...9 ....
....|..|--- .... ....|G#4 .... ....|C-4 .... ....
....|..|--- .... ....|--- .... ....|--- .... ....
....|..|D-3 .... ....|A#3 .... ....|C-4 .... ....
....|..|--- .... ....|--- .... ....|--- .... ....
....|..|R-- .... ....|D-4 .... ....|C-4 .... ....
....|..|--- .... ....|--- ...F ....|--- ...C ....

[Pattern11]
....|..|D-1 .... ....|G#4 .... ....|C-4 .... ....
....|..|--- .... ....|--- .... ....|--- ...9 ....
....|..|--- .... ....|G#3 .... ....|C-4 .... ....
....|..|--- .... ....|--- .... ....|--- .... ....
....|..|D-2 .... ....|A#3 .... ....|C-4 .... ....
....|..|--- .... ....|--- .... ....|--- .... ....
....|..|R-- .... ....|D-4 .... ....|C-4 .... ....
....|..|--- .... ....|--- .... ....|--- ...F ....
....|..|G#1 .... ....|E-4 .... ....|C-4 .... ....
....|..|--- .... ....|--- .... ....|--- ...9 ....
....|..|--- .... ....|G#4 .... ....|C-4 .... ....
....|..|--- .... ....|--- .... ....|--- .... ....
....|..|G#2 .... ....|A#4 .... ....|C-4 .... ....
....|..|--- .... ....|--- .... ....|--- .... ....
....|..|R-- .... ....|E-5 .... ....|C-4 .... ....
....|..|--- .... ....|--- .... ....|--- ...C ....
....|..|E-1 .... ....|--- .... ....|C-4 .... ....
....|..|--- .... ....|--- .... ....|--- ...9 ....
....|..|--- .... ....|--- .... ....|C-4 .... ....
....|..|--- .... ....|--- .... ....|--- .... ....
....|..|E-2 .... ....|--- .... ....|C-4 .... ....
....|..|--- .... ....|--- .... ....|--- .... ....
....|..|R-- .... ....|--- .... ....|C-4 .... ....
....|..|--- .... ....|--- .... ....|--- ...F ....
....|..|A#1 .... ....|--- .... ....|C-4 .... ....
....|..|--- .... ....|--- .... ....|--- ...9 ....
....|..|--- .... ....|--- .... ....|C-4 .... ....
....|..|--- .... ....|--- .... ....|--- .... ....
....|..|A#2 .... ....|--- .... ....|C-4 .... ....
....|..|--- .... ....|--- .... ....|--- .... ....
....|..|R-- .... ....|--- .... ....|C-4 .... ....
....|..|--- .... ....|--- .... ....|--- ...C ....
....|..|D-1 .... ....|--- .... ....|C-4 .... ....
....|..|--- .... ....|--- .... ....|--- ...9 ....
....|..|--- .... ....|--- .... ....|C-4 .... ....
....|..|--- .... ....|--- .... ....|--- .... ....
....|..|D-2 .... ....|--- .... ....|C-4 .... ....
....|..|--- .... ....|--- .... ....|--- .... ....
....|..|R-- .... ....|--- .... ....|C-4 .... ....
....|..|--- .... ....|--- .... ....|--- ...F ....
....|..|G#1 .... ....|--- .... ....|C-4 .... ....
....|..|--- .... ....|--- .... ....|--- ...9 ....
....|..|--- .... ....|--- .... ....|C-4 .... ....
....|..|--- .... ....|--- .... ....|--- .... ....
....|..|G#2 .... ....|--- .... ....|C-4 .... ....
....|..|--- .... ....|--- .... ....|--- .... ....
....|..|R-- .... ....|--- .... ....|C-4 .... ....
....|..|--- .... ....|--- .... ....|--- ...C ....
....|..|E-1 .... ....|--- .... ....|C-4 .... ....
....|..|--- .... ....|--- .... ....|--- ...9 ....
....|..|--- .... ....|--- .... ....|C-4 .... ....
....|..|--- .... ....|--- .... ....|--- .... ....
....|..|E-2 .... ....|--- .... ....|C-4 .... ....
....|..|--- .... ....|--- .... ....|--- .... ....
....|..|R-- .... ....|--- .... ....|C-4 .... ....
....|..|--- .... ....|--- .... ....|--- ...F ....
....|..|D-2 .... ....|--- .... ....|C-4 .... ....
....|..|--- .... ....|--- .... ....|--- ...9 ....
....|..|--- .... ....|--- .... ....|C-4 .... ....
....|..|--- .... ....|--- .... ....|--- .... ....
....|..|D-3 .... ....|--- .... ....|C-4 .... ....
....|..|--- .... ....|--- .... ....|--- .... ....
....|..|R-- .... ....|--- .... ....|C-4 .... ....
....|..|--- .... ....|--- .... ....|--- ...C ....
....|..|D-1 .... ....|--- .... ....|C-4 .... ....
....|..|--- .... ....|--- .... ....|--- ...9 ....
....|..|--- .... ....|--- .... ....|C-4 .... ....
....|..|--- .... ....|--- .... ....|--- .... ....
....|..|D-2 .... ....|--- .... ....|C-4 .... ....
....|..|--- .... ....|--- .... ....|--- .... ....
....|..|R-- .... ....|--- .... ....|C-4 .... ....
....|..|--- .... ....|--- .... ....|--- ...F ....
....|..|G#1 .... ....|--- .... ....|C-4 .... ....
....|..|--- .... ....|--- .... ....|--- ...9 ....
....|..|--- .... ....|--- .... ....|C-4 .... ....
....|..|--- .... ....|--- .... ....|--- .... ....
....|..|G#2 .... ....|--- .... ....|C-4 .... ....
....|..|--- .... ....|--- .... ....|--- .... ....
....|..|R-- .... ....|--- .... ....|C-4 .... ....
....|..|--- .... ....|--- .... ....|--- ...C ....
....|..|E-1 .... ....|--- .... ....|C-4 .... ....
....|..|--- .... ....|--- .... ....|--- ...9 ....
....|..|--- .... ....|--- .... ....|C-4 .... ....
....|..|--- .... ....|--- .... ....|--- .... ....
....|..|E-2 .... ....|--- .... ....|C-4 .... ....
....|..|--- .... ....|--- .... ....|--- .... ....
....|..|R-- .... ....|--- .... ....|C-4 .... ....
....|..|--- .... ....|--- .... ....|--- ...F ....
....|..|A#1 .... ....|--- .... ....|C-4 .... ....
....|..|--- .... ....|--- .... ....|--- ...9 ....
....|..|--- .... ....|--- .... ....|C-4 .... ....
....|..|--- .... ....|--- .... ....|--- .... ....
....|..|A#2 .... ....|--- .... ....|C-4 .... ....
....|..|--- .... ....|--- .... ....|--- .... ....
....|..|R-- .... ....|--- .... ....|C-4 .... ....
....|..|--- .... ....|--- .... ....|--- ...C ....
....|..|D-1 .... ....|--- .... ....|C-4 .... ....
....|..|--- .... ....|--- .... ....|--- ...9 ....
....|..|--- .... ....|--- .... ....|C-4 .... ....
....|..|--- .... ....|--- .... ....|--- .... ....
....|..|D-2 .... ....|--- .... ....|C-4 .... ....
....|..|--- .... ....|--- .... ....|--- .... ....
....|..|R-- .... ....|--- .... ....|C-4 .... ....
....|..|--- .... ....|--- .... ....|--- ...F ....
....|..|G#1 .... ....|--- .... ....|C-4 .... ....
....|..|--- .... ....|--- .... ....|--- ...9 ....
....|..|--- .... ....|--- .... ....|C-4 .... ....
....|..|--- .... ....|--- .... ....|--- .... ....
....|..|G#2 .... ....|--- .... ....|C-4 .... ....
....|..|--- .... ....|--- .... ....|--- .... ....
....|..|R-- .... ....|--- .... ....|C-4 .... ....
....|..|--- .... ....|--- .... ....|--- ...C ....
....|..|E-1 .... ....|--- .... ....|C-4 .... ....
....|..|--- .... ....|--- .... ....|--- ...9 ....
....|..|--- .... ....|--- .... ....|C-4 .... ....
....|..|--- .... ....|--- .... ....|--- .... ....
....|..|E-2 .... ....|--- .... ....|C-4 .... ....
....|..|--- .... ....|--- .... ....|--- .... ....
....|..|R-- .... ....|--- .... ....|C-4 .... ....
....|..|--- .... ....|--- .... ....|--- ...F ....
....|..|D-2 .... ....|--- .... ....|C-4 .... ....
....|..|--- .... ....|--- .... ....|--- ...9 ....
....|..|--- .... ....|--- .... ....|C-4 .... ....
....|..|--- .... ....|--- .... ....|--- .... ....
....|..|D-3 .... ....|--- .... ....|C-4 .... ....
....|..|--- .... ....|--- .... ....|--- .... ....
....|..|R-- .... ....|--- .... ....|C-4 .... ....
....|..|--- .... ....|--- .... ....|--- .... ....

